# Blender v2.74 (sub 0) OBJ File: ''
# www.blender.org
mtllib suzane.mtl
o Suzanne
v 0.437500 0.164062 0.765625
v -0.437500 0.164062 0.765625
v 0.500000 0.093750 0.687500
v -0.500000 0.093750 0.687500
v 0.546875 0.054688 0.578125
v -0.546875 0.054688 0.578125
v 0.351562 -0.023438 0.617188
v -0.351562 -0.023438 0.617188
v 0.351562 0.031250 0.718750
v -0.351562 0.031250 0.718750
v 0.351562 0.132812 0.781250
v -0.351562 0.132812 0.781250
v 0.273438 0.164062 0.796875
v -0.273438 0.164062 0.796875
v 0.203125 0.093750 0.742188
v -0.203125 0.093750 0.742188
v 0.156250 0.054688 0.648438
v -0.156250 0.054688 0.648438
v 0.078125 0.242188 0.656250
v -0.078125 0.242188 0.656250
v 0.140625 0.242188 0.742188
v -0.140625 0.242188 0.742188
v 0.242188 0.242188 0.796875
v -0.242188 0.242188 0.796875
v 0.273438 0.328125 0.796875
v -0.273438 0.328125 0.796875
v 0.203125 0.390625 0.742188
v -0.203125 0.390625 0.742188
v 0.156250 0.437500 0.648438
v -0.156250 0.437500 0.648438
v 0.351562 0.515625 0.617188
v -0.351562 0.515625 0.617188
v 0.351562 0.453125 0.718750
v -0.351562 0.453125 0.718750
v 0.351562 0.359375 0.781250
v -0.351562 0.359375 0.781250
v 0.437500 0.328125 0.765625
v -0.437500 0.328125 0.765625
v 0.500000 0.390625 0.687500
v -0.500000 0.390625 0.687500
v 0.546875 0.437500 0.578125
v -0.546875 0.437500 0.578125
v 0.625000 0.242188 0.562500
v -0.625000 0.242188 0.562500
v 0.562500 0.242188 0.671875
v -0.562500 0.242188 0.671875
v 0.468750 0.242188 0.757812
v -0.468750 0.242188 0.757812
v 0.476562 0.242188 0.773438
v -0.476562 0.242188 0.773438
v 0.445312 0.335938 0.781250
v -0.445312 0.335938 0.781250
v 0.351562 0.375000 0.804688
v -0.351562 0.375000 0.804688
v 0.265625 0.335938 0.820312
v -0.265625 0.335938 0.820312
v 0.226562 0.242188 0.820312
v -0.226562 0.242188 0.820312
v 0.265625 0.156250 0.820312
v -0.265625 0.156250 0.820312
v 0.351562 0.242188 0.828125
v -0.351562 0.242188 0.828125
v 0.351562 0.117188 0.804688
v -0.351562 0.117188 0.804688
v 0.445312 0.156250 0.781250
v -0.445312 0.156250 0.781250
v 0.000000 0.429688 0.742188
v 0.000000 0.351562 0.820312
v 0.000000 -0.679688 0.734375
v 0.000000 -0.320312 0.781250
v 0.000000 -0.187500 0.796875
v 0.000000 -0.773438 0.718750
v 0.000000 0.406250 0.601562
v 0.000000 0.570312 0.570312
v 0.000000 0.898438 -0.546875
v 0.000000 0.562500 -0.851562
v 0.000000 0.070312 -0.828125
v 0.000000 -0.382812 -0.351562
v 0.203125 -0.187500 0.562500
v -0.203125 -0.187500 0.562500
v 0.312500 -0.437500 0.570312
v -0.312500 -0.437500 0.570312
v 0.351562 -0.695312 0.570312
v -0.351562 -0.695312 0.570312
v 0.367188 -0.890625 0.531250
v -0.367188 -0.890625 0.531250
v 0.328125 -0.945312 0.523438
v -0.328125 -0.945312 0.523438
v 0.179688 -0.968750 0.554688
v -0.179688 -0.968750 0.554688
v 0.000000 -0.984375 0.578125
v 0.437500 -0.140625 0.531250
v -0.437500 -0.140625 0.531250
v 0.632812 -0.039062 0.539062
v -0.632812 -0.039062 0.539062
v 0.828125 0.148438 0.445312
v -0.828125 0.148438 0.445312
v 0.859375 0.429688 0.593750
v -0.859375 0.429688 0.593750
v 0.710938 0.484375 0.625000
v -0.710938 0.484375 0.625000
v 0.492188 0.601562 0.687500
v -0.492188 0.601562 0.687500
v 0.320312 0.757812 0.734375
v -0.320312 0.757812 0.734375
v 0.156250 0.718750 0.757812
v -0.156250 0.718750 0.757812
v 0.062500 0.492188 0.750000
v -0.062500 0.492188 0.750000
v 0.164062 0.414062 0.773438
v -0.164062 0.414062 0.773438
v 0.125000 0.304688 0.765625
v -0.125000 0.304688 0.765625
v 0.203125 0.093750 0.742188
v -0.203125 0.093750 0.742188
v 0.375000 0.015625 0.703125
v -0.375000 0.015625 0.703125
v 0.492188 0.062500 0.671875
v -0.492188 0.062500 0.671875
v 0.625000 0.187500 0.648438
v -0.625000 0.187500 0.648438
v 0.640625 0.296875 0.648438
v -0.640625 0.296875 0.648438
v 0.601562 0.375000 0.664062
v -0.601562 0.375000 0.664062
v 0.429688 0.437500 0.718750
v -0.429688 0.437500 0.718750
v 0.250000 0.468750 0.757812
v -0.250000 0.468750 0.757812
v 0.000000 -0.765625 0.734375
v 0.109375 -0.718750 0.734375
v -0.109375 -0.718750 0.734375
v 0.117188 -0.835938 0.710938
v -0.117188 -0.835938 0.710938
v 0.062500 -0.882812 0.695312
v -0.062500 -0.882812 0.695312
v 0.000000 -0.890625 0.687500
v 0.000000 -0.195312 0.750000
v 0.000000 -0.140625 0.742188
v 0.101562 -0.148438 0.742188
v -0.101562 -0.148438 0.742188
v 0.125000 -0.226562 0.750000
v -0.125000 -0.226562 0.750000
v 0.085938 -0.289062 0.742188
v -0.085938 -0.289062 0.742188
v 0.398438 -0.046875 0.671875
v -0.398438 -0.046875 0.671875
v 0.617188 0.054688 0.625000
v -0.617188 0.054688 0.625000
v 0.726562 0.203125 0.601562
v -0.726562 0.203125 0.601562
v 0.742188 0.375000 0.656250
v -0.742188 0.375000 0.656250
v 0.687500 0.414062 0.726562
v -0.687500 0.414062 0.726562
v 0.437500 0.546875 0.796875
v -0.437500 0.546875 0.796875
v 0.312500 0.640625 0.835938
v -0.312500 0.640625 0.835938
v 0.203125 0.617188 0.851562
v -0.203125 0.617188 0.851562
v 0.101562 0.429688 0.843750
v -0.101562 0.429688 0.843750
v 0.125000 -0.101562 0.812500
v -0.125000 -0.101562 0.812500
v 0.210938 -0.445312 0.710938
v -0.210938 -0.445312 0.710938
v 0.250000 -0.703125 0.687500
v -0.250000 -0.703125 0.687500
v 0.265625 -0.820312 0.664062
v -0.265625 -0.820312 0.664062
v 0.234375 -0.914062 0.632812
v -0.234375 -0.914062 0.632812
v 0.164062 -0.929688 0.632812
v -0.164062 -0.929688 0.632812
v 0.000000 -0.945312 0.640625
v 0.000000 0.046875 0.726562
v 0.000000 0.210938 0.765625
v 0.328125 0.476562 0.742188
v -0.328125 0.476562 0.742188
v 0.164062 0.140625 0.750000
v -0.164062 0.140625 0.750000
v 0.132812 0.210938 0.757812
v -0.132812 0.210938 0.757812
v 0.117188 -0.687500 0.734375
v -0.117188 -0.687500 0.734375
v 0.078125 -0.445312 0.750000
v -0.078125 -0.445312 0.750000
v 0.000000 -0.445312 0.750000
v 0.000000 -0.328125 0.742188
v 0.093750 -0.273438 0.781250
v -0.093750 -0.273438 0.781250
v 0.132812 -0.226562 0.796875
v -0.132812 -0.226562 0.796875
v 0.109375 -0.132812 0.781250
v -0.109375 -0.132812 0.781250
v 0.039062 -0.125000 0.781250
v -0.039062 -0.125000 0.781250
v 0.000000 -0.203125 0.828125
v 0.046875 -0.148438 0.812500
v -0.046875 -0.148438 0.812500
v 0.093750 -0.156250 0.812500
v -0.093750 -0.156250 0.812500
v 0.109375 -0.226562 0.828125
v -0.109375 -0.226562 0.828125
v 0.078125 -0.250000 0.804688
v -0.078125 -0.250000 0.804688
v 0.000000 -0.289062 0.804688
v 0.257812 -0.312500 0.554688
v -0.257812 -0.312500 0.554688
v 0.164062 -0.242188 0.710938
v -0.164062 -0.242188 0.710938
v 0.179688 -0.312500 0.710938
v -0.179688 -0.312500 0.710938
v 0.234375 -0.250000 0.554688
v -0.234375 -0.250000 0.554688
v 0.000000 -0.875000 0.687500
v 0.046875 -0.867188 0.687500
v -0.046875 -0.867188 0.687500
v 0.093750 -0.820312 0.710938
v -0.093750 -0.820312 0.710938
v 0.093750 -0.742188 0.726562
v -0.093750 -0.742188 0.726562
v 0.000000 -0.781250 0.656250
v 0.093750 -0.750000 0.664062
v -0.093750 -0.750000 0.664062
v 0.093750 -0.812500 0.640625
v -0.093750 -0.812500 0.640625
v 0.046875 -0.851562 0.632812
v -0.046875 -0.851562 0.632812
v 0.000000 -0.859375 0.632812
v 0.171875 0.218750 0.781250
v -0.171875 0.218750 0.781250
v 0.187500 0.156250 0.773438
v -0.187500 0.156250 0.773438
v 0.335938 0.429688 0.757812
v -0.335938 0.429688 0.757812
v 0.273438 0.421875 0.773438
v -0.273438 0.421875 0.773438
v 0.421875 0.398438 0.773438
v -0.421875 0.398438 0.773438
v 0.562500 0.351562 0.695312
v -0.562500 0.351562 0.695312
v 0.585938 0.289062 0.687500
v -0.585938 0.289062 0.687500
v 0.578125 0.195312 0.679688
v -0.578125 0.195312 0.679688
v 0.476562 0.101562 0.718750
v -0.476562 0.101562 0.718750
v 0.375000 0.062500 0.742188
v -0.375000 0.062500 0.742188
v 0.226562 0.109375 0.781250
v -0.226562 0.109375 0.781250
v 0.179688 0.296875 0.781250
v -0.179688 0.296875 0.781250
v 0.210938 0.375000 0.781250
v -0.210938 0.375000 0.781250
v 0.234375 0.359375 0.757812
v -0.234375 0.359375 0.757812
v 0.195312 0.296875 0.757812
v -0.195312 0.296875 0.757812
v 0.242188 0.125000 0.757812
v -0.242188 0.125000 0.757812
v 0.375000 0.085938 0.726562
v -0.375000 0.085938 0.726562
v 0.460938 0.117188 0.703125
v -0.460938 0.117188 0.703125
v 0.546875 0.210938 0.671875
v -0.546875 0.210938 0.671875
v 0.554688 0.281250 0.671875
v -0.554688 0.281250 0.671875
v 0.531250 0.335938 0.679688
v -0.531250 0.335938 0.679688
v 0.414062 0.390625 0.750000
v -0.414062 0.390625 0.750000
v 0.281250 0.398438 0.765625
v -0.281250 0.398438 0.765625
v 0.335938 0.406250 0.750000
v -0.335938 0.406250 0.750000
v 0.203125 0.171875 0.750000
v -0.203125 0.171875 0.750000
v 0.195312 0.226562 0.750000
v -0.195312 0.226562 0.750000
v 0.109375 0.460938 0.609375
v -0.109375 0.460938 0.609375
v 0.195312 0.664062 0.617188
v -0.195312 0.664062 0.617188
v 0.335938 0.687500 0.593750
v -0.335938 0.687500 0.593750
v 0.484375 0.554688 0.554688
v -0.484375 0.554688 0.554688
v 0.679688 0.453125 0.492188
v -0.679688 0.453125 0.492188
v 0.796875 0.406250 0.460938
v -0.796875 0.406250 0.460938
v 0.773438 0.164062 0.375000
v -0.773438 0.164062 0.375000
v 0.601562 0.000000 0.414062
v -0.601562 0.000000 0.414062
v 0.437500 -0.093750 0.468750
v -0.437500 -0.093750 0.468750
v 0.000000 0.898438 0.289062
v 0.000000 0.984375 -0.078125
v 0.000000 -0.195312 -0.671875
v 0.000000 -0.460938 0.187500
v 0.000000 -0.976562 0.460938
v 0.000000 -0.804688 0.343750
v 0.000000 -0.570312 0.320312
v 0.000000 -0.484375 0.281250
v 0.851562 0.234375 0.054688
v -0.851562 0.234375 0.054688
v 0.859375 0.320312 -0.046875
v -0.859375 0.320312 -0.046875
v 0.773438 0.265625 -0.437500
v -0.773438 0.265625 -0.437500
v 0.460938 0.437500 -0.703125
v -0.460938 0.437500 -0.703125
v 0.734375 -0.046875 0.070312
v -0.734375 -0.046875 0.070312
v 0.593750 -0.125000 -0.164062
v -0.593750 -0.125000 -0.164062
v 0.640625 -0.007812 -0.429688
v -0.640625 -0.007812 -0.429688
v 0.335938 0.054688 -0.664062
v -0.335938 0.054688 -0.664062
v 0.234375 -0.351562 0.406250
v -0.234375 -0.351562 0.406250
v 0.179688 -0.414062 0.257812
v -0.179688 -0.414062 0.257812
v 0.289062 -0.710938 0.382812
v -0.289062 -0.710938 0.382812
v 0.250000 -0.500000 0.390625
v -0.250000 -0.500000 0.390625
v 0.328125 -0.914062 0.398438
v -0.328125 -0.914062 0.398438
v 0.140625 -0.757812 0.367188
v -0.140625 -0.757812 0.367188
v 0.125000 -0.539062 0.359375
v -0.125000 -0.539062 0.359375
v 0.164062 -0.945312 0.437500
v -0.164062 -0.945312 0.437500
v 0.218750 -0.281250 0.429688
v -0.218750 -0.281250 0.429688
v 0.210938 -0.226562 0.468750
v -0.210938 -0.226562 0.468750
v 0.203125 -0.171875 0.500000
v -0.203125 -0.171875 0.500000
v 0.210938 -0.390625 0.164062
v -0.210938 -0.390625 0.164062
v 0.296875 -0.312500 -0.265625
v -0.296875 -0.312500 -0.265625
v 0.343750 -0.148438 -0.539062
v -0.343750 -0.148438 -0.539062
v 0.453125 0.867188 -0.382812
v -0.453125 0.867188 -0.382812
v 0.453125 0.929688 -0.070312
v -0.453125 0.929688 -0.070312
v 0.453125 0.851562 0.234375
v -0.453125 0.851562 0.234375
v 0.460938 0.523438 0.429688
v -0.460938 0.523438 0.429688
v 0.726562 0.406250 0.335938
v -0.726562 0.406250 0.335938
v 0.632812 0.453125 0.281250
v -0.632812 0.453125 0.281250
v 0.640625 0.703125 0.054688
v -0.640625 0.703125 0.054688
v 0.796875 0.562500 0.125000
v -0.796875 0.562500 0.125000
v 0.796875 0.617188 -0.117188
v -0.796875 0.617188 -0.117188
v 0.640625 0.750000 -0.195312
v -0.640625 0.750000 -0.195312
v 0.640625 0.679688 -0.445312
v -0.640625 0.679688 -0.445312
v 0.796875 0.539062 -0.359375
v -0.796875 0.539062 -0.359375
v 0.617188 0.328125 -0.585938
v -0.617188 0.328125 -0.585938
v 0.484375 0.023438 -0.546875
v -0.484375 0.023438 -0.546875
v 0.820312 0.328125 -0.203125
v -0.820312 0.328125 -0.203125
v 0.406250 -0.171875 0.148438
v -0.406250 -0.171875 0.148438
v 0.429688 -0.195312 -0.210938
v -0.429688 -0.195312 -0.210938
v 0.890625 0.406250 -0.234375
v -0.890625 0.406250 -0.234375
v 0.773438 -0.140625 -0.125000
v -0.773438 -0.140625 -0.125000
v 1.039062 -0.101562 -0.328125
v -1.039062 -0.101562 -0.328125
v 1.281250 0.054688 -0.429688
v -1.281250 0.054688 -0.429688
v 1.351562 0.320312 -0.421875
v -1.351562 0.320312 -0.421875
v 1.234375 0.507812 -0.421875
v -1.234375 0.507812 -0.421875
v 1.023438 0.476562 -0.312500
v -1.023438 0.476562 -0.312500
v 1.015625 0.414062 -0.289062
v -1.015625 0.414062 -0.289062
v 1.187500 0.437500 -0.390625
v -1.187500 0.437500 -0.390625
v 1.265625 0.289062 -0.406250
v -1.265625 0.289062 -0.406250
v 1.210938 0.078125 -0.406250
v -1.210938 0.078125 -0.406250
v 1.031250 -0.039062 -0.304688
v -1.031250 -0.039062 -0.304688
v 0.828125 -0.070312 -0.132812
v -0.828125 -0.070312 -0.132812
v 0.921875 0.359375 -0.218750
v -0.921875 0.359375 -0.218750
v 0.945312 0.304688 -0.289062
v -0.945312 0.304688 -0.289062
v 0.882812 -0.023438 -0.210938
v -0.882812 -0.023438 -0.210938
v 1.039062 0.000000 -0.367188
v -1.039062 0.000000 -0.367188
v 1.187500 0.093750 -0.445312
v -1.187500 0.093750 -0.445312
v 1.234375 0.250000 -0.445312
v -1.234375 0.250000 -0.445312
v 1.171875 0.359375 -0.437500
v -1.171875 0.359375 -0.437500
v 1.023438 0.343750 -0.359375
v -1.023438 0.343750 -0.359375
v 0.843750 0.289062 -0.210938
v -0.843750 0.289062 -0.210938
v 0.835938 0.171875 -0.273438
v -0.835938 0.171875 -0.273438
v 0.757812 0.093750 -0.273438
v -0.757812 0.093750 -0.273438
v 0.820312 0.085938 -0.273438
v -0.820312 0.085938 -0.273438
v 0.843750 0.015625 -0.273438
v -0.843750 0.015625 -0.273438
v 0.812500 -0.015625 -0.273438
v -0.812500 -0.015625 -0.273438
v 0.726562 0.000000 -0.070312
v -0.726562 0.000000 -0.070312
v 0.718750 -0.023438 -0.171875
v -0.718750 -0.023438 -0.171875
v 0.718750 0.039062 -0.187500
v -0.718750 0.039062 -0.187500
v 0.796875 0.203125 -0.210938
v -0.796875 0.203125 -0.210938
v 0.890625 0.242188 -0.265625
v -0.890625 0.242188 -0.265625
v 0.890625 0.234375 -0.320312
v -0.890625 0.234375 -0.320312
v 0.812500 -0.015625 -0.320312
v -0.812500 -0.015625 -0.320312
v 0.851562 0.015625 -0.320312
v -0.851562 0.015625 -0.320312
v 0.828125 0.078125 -0.320312
v -0.828125 0.078125 -0.320312
v 0.765625 0.093750 -0.320312
v -0.765625 0.093750 -0.320312
v 0.843750 0.171875 -0.320312
v -0.843750 0.171875 -0.320312
v 1.039062 0.328125 -0.414062
v -1.039062 0.328125 -0.414062
v 1.187500 0.343750 -0.484375
v -1.187500 0.343750 -0.484375
v 1.257812 0.242188 -0.492188
v -1.257812 0.242188 -0.492188
v 1.210938 0.085938 -0.484375
v -1.210938 0.085938 -0.484375
v 1.046875 0.000000 -0.421875
v -1.046875 0.000000 -0.421875
v 0.882812 -0.015625 -0.265625
v -0.882812 -0.015625 -0.265625
v 0.953125 0.289062 -0.343750
v -0.953125 0.289062 -0.343750
v 0.890625 0.109375 -0.328125
v -0.890625 0.109375 -0.328125
v 0.937500 0.062500 -0.335938
v -0.937500 0.062500 -0.335938
v 1.000000 0.125000 -0.367188
v -1.000000 0.125000 -0.367188
v 0.960938 0.171875 -0.351562
v -0.960938 0.171875 -0.351562
v 1.015625 0.234375 -0.375000
v -1.015625 0.234375 -0.375000
v 1.054688 0.187500 -0.382812
v -1.054688 0.187500 -0.382812
v 1.109375 0.210938 -0.390625
v -1.109375 0.210938 -0.390625
v 1.085938 0.273438 -0.390625
v -1.085938 0.273438 -0.390625
v 1.023438 0.437500 -0.484375
v -1.023438 0.437500 -0.484375
v 1.250000 0.468750 -0.546875
v -1.250000 0.468750 -0.546875
v 1.367188 0.296875 -0.500000
v -1.367188 0.296875 -0.500000
v 1.312500 0.054688 -0.531250
v -1.312500 0.054688 -0.531250
v 1.039062 -0.085938 -0.492188
v -1.039062 -0.085938 -0.492188
v 0.789062 -0.125000 -0.328125
v -0.789062 -0.125000 -0.328125
v 0.859375 0.382812 -0.382812
v -0.859375 0.382812 -0.382812
vn 0.671300 -0.197100 0.714500
vn -0.671300 -0.197100 0.714500
vn 0.832600 -0.301700 0.464600
vn -0.832600 -0.301700 0.464600
vn 0.425800 -0.796700 0.429000
vn -0.425800 -0.796700 0.429000
vn 0.326500 -0.495400 0.805000
vn -0.326500 -0.495400 0.805000
vn -0.064900 -0.571400 0.818100
vn 0.064900 -0.571400 0.818100
vn -0.273800 -0.831500 0.483400
vn 0.273800 -0.831500 0.483400
vn -0.760600 -0.340000 0.553100
vn 0.782400 -0.329400 0.528500
vn -0.465800 -0.186300 0.865100
vn 0.465800 -0.186300 0.865100
vn -0.498300 0.181200 0.847800
vn 0.498300 0.181200 0.847800
vn -0.768300 0.329300 0.548800
vn 0.765600 0.322300 0.556800
vn -0.248700 0.824900 0.507600
vn 0.256000 0.807300 0.531700
vn -0.101700 0.551800 0.827700
vn 0.082100 0.602300 0.794000
vn 0.386100 0.544600 0.744500
vn -0.332900 0.523100 0.784600
vn 0.405900 0.764100 0.501400
vn -0.424600 0.771100 0.474500
vn 0.829900 0.294000 0.474200
vn -0.825100 0.296800 0.480800
vn 0.661700 0.202600 0.721900
vn -0.688800 0.186800 0.700500
vn 0.781600 0.305800 -0.543700
vn -0.840000 0.343600 -0.420000
vn 0.203700 0.814600 -0.543100
vn -0.207400 0.829600 -0.518500
vn -0.438100 0.798800 -0.412300
vn 0.405600 0.760500 -0.507000
vn -0.786100 0.327600 -0.524100
vn 0.864200 0.314300 -0.392800
vn -0.851900 -0.340800 -0.397600
vn 0.851900 -0.340800 -0.397600
vn -0.405600 -0.760500 -0.507000
vn 0.405600 -0.760500 -0.507000
vn 0.207400 -0.829600 -0.518500
vn -0.207400 -0.829600 -0.518500
vn 0.829700 -0.373400 -0.414900
vn -0.829700 -0.373400 -0.414900
vn 0.400000 -0.062300 0.914400
vn -0.400000 -0.062300 0.914400
vn 0.306900 -0.175400 0.935400
vn -0.306900 -0.175400 0.935400
vn 0.094500 -0.183500 0.978500
vn -0.094500 -0.183500 0.978500
vn -0.062400 -0.028300 0.997700
vn 0.062400 -0.028300 0.997700
vn -0.062400 0.026000 0.997700
vn 0.062400 0.026000 0.997700
vn 0.099600 0.172900 0.979900
vn -0.099600 0.172900 0.979900
vn 0.303600 0.165600 0.938300
vn -0.303600 0.165600 0.938300
vn 0.400200 0.057200 0.914700
vn -0.400200 0.057200 0.914700
vn 0.105400 -0.843300 0.527000
vn -0.136700 -0.874800 0.464800
vn 0.191600 -0.862000 0.469300
vn -0.230300 -0.865600 0.444700
vn 0.595900 -0.425600 0.681000
vn -0.595900 -0.425600 0.681000
vn 0.756300 -0.029900 0.653500
vn -0.756300 -0.029900 0.653500
vn 0.806900 0.068900 0.586600
vn -0.806900 0.068900 0.586600
vn 0.233400 -0.777900 0.583400
vn -0.233400 -0.777900 0.583400
vn 0.417700 -0.575100 0.703400
vn -0.355700 -0.729000 0.584800
vn 0.687200 -0.419100 0.593400
vn -0.687200 -0.419100 0.593400
vn 0.553700 -0.297800 0.777700
vn -0.702800 -0.391500 0.593900
vn 0.822700 0.360600 0.439500
vn -0.312700 0.342500 0.886000
vn 0.504100 0.644800 0.574500
vn -0.509100 0.648200 0.566300
vn 0.615500 0.492400 0.615500
vn -0.615500 0.492400 0.615500
vn -0.037100 0.668500 0.742800
vn 0.048600 0.656000 0.753200
vn -0.738600 0.376800 0.559000
vn 0.710400 0.271500 0.649400
vn -0.577400 0.577400 0.577400
vn 0.601300 0.526200 0.601300
vn 0.536400 -0.323000 0.779700
vn -0.507000 -0.628100 0.590300
vn 0.218100 -0.468500 0.856100
vn -0.218100 -0.468500 0.856100
vn -0.107300 -0.501000 0.858800
vn 0.034800 -0.579200 0.814400
vn -0.077000 -0.575900 0.813900
vn 0.089900 -0.784300 0.613800
vn 0.027900 -0.864500 0.501900
vn -0.054700 -0.169500 0.984000
vn 0.168700 -0.312800 0.934700
vn -0.426000 -0.060900 0.902700
vn 0.435000 -0.181200 0.882000
vn -0.335200 -0.182800 0.924300
vn 0.322300 -0.276200 0.905400
vn -0.357900 -0.306800 0.881900
vn 0.481500 -0.240800 0.842700
vn -0.306900 0.211300 0.928000
vn -0.031700 -0.189900 0.981300
vn 0.031700 -0.189900 0.981300
vn 0.185400 -0.495600 0.848500
vn -0.681900 -0.291500 0.670900
vn 0.262300 -0.349800 0.899400
vn -0.262300 -0.349800 0.899400
vn 0.058500 -0.084500 0.994700
vn 0.006600 -0.231600 0.972800
vn -0.013600 -0.650700 0.759200
vn 0.013600 -0.650700 0.759200
vn 0.240400 -0.547600 0.801400
vn -0.240400 -0.547600 0.801400
vn 0.314300 -0.392800 0.864200
vn -0.312800 -0.166200 0.935200
vn 0.282100 -0.016400 0.959200
vn -0.282100 -0.016400 0.959200
vn 0.327300 -0.143200 0.934000
vn -0.327300 -0.143200 0.934000
vn 0.000000 0.066500 0.997800
vn 0.023200 0.051100 0.998400
vn 0.000000 -0.066500 0.997800
vn 0.004300 -0.065100 0.997900
vn 0.000000 0.000000 1.000000
vn 0.782600 -0.608700 -0.130400
vn -0.782600 -0.608700 -0.130400
vn 0.944800 0.191900 -0.265700
vn -0.944800 0.191900 -0.265700
vn 0.101800 0.916500 -0.387000
vn -0.069300 0.900400 -0.429400
vn -0.690500 0.549200 0.470800
vn 1.000000 0.000000 0.000000
vn 0.431900 -0.863900 0.259200
vn -0.407100 -0.895600 0.179100
vn 0.287300 -0.574700 0.766300
vn -0.287300 -0.574700 0.766300
vn -0.666700 0.666700 0.333300
vn 0.666700 0.666700 0.333300
vn 0.134800 0.808600 0.572700
vn -0.134800 0.808600 0.572700
vn 0.763900 0.297100 0.572900
vn -0.753200 0.287000 0.591800
vn 0.411600 -0.857500 0.308700
vn -0.411600 -0.857500 0.308700
vn 0.037500 0.224700 0.973700
vn -0.050200 0.234300 0.970900
vn 0.130400 -0.260900 0.956500
vn -0.130400 -0.260900 0.956500
vn -0.063100 -0.820600 0.568100
vn 0.063100 -0.820600 0.568100
vn 0.732500 0.281700 0.619800
vn -0.732500 0.281700 0.619800
vn 0.331900 0.073800 0.940400
vn -0.546000 -0.431000 0.718400
vn 0.281500 0.066200 0.957300
vn -0.323100 0.031100 0.945900
vn 0.875300 0.205900 0.437600
vn -0.735700 0.391000 0.553100
vn 0.897300 0.199400 0.393800
vn -0.848000 0.318000 0.424000
vn 0.958600 0.066400 0.276700
vn -0.958600 0.066400 0.276700
vn 0.252400 -0.865500 0.432700
vn -0.178300 -0.416100 0.891700
vn -0.175100 -0.204300 0.963100
vn 0.175100 -0.204300 0.963100
vn -0.121900 -0.182900 0.975500
vn 0.121900 -0.182900 0.975500
vn -0.156200 0.312300 0.937000
vn 0.156200 0.312300 0.937000
vn -0.158200 0.949400 0.271300
vn 0.158200 0.949400 0.271300
vn -0.723800 0.685700 0.076200
vn 0.723800 0.685700 0.076200
vn -1.000000 0.000000 0.000000
vn 0.305100 -0.945000 0.118100
vn -0.305100 -0.945000 0.118100
vn 0.047800 -0.287000 0.956700
vn -0.047800 -0.287000 0.956700
vn 0.135300 -0.347900 0.927700
vn -0.135300 -0.347900 0.927700
vn -0.548800 -0.329300 0.768300
vn 0.548800 -0.329300 0.768300
vn -0.494500 -0.113000 0.861800
vn 0.494500 -0.113000 0.861800
vn -0.259500 0.103800 0.960100
vn 0.171700 -0.009000 0.985100
vn -0.668400 -0.459500 0.584900
vn 0.433200 -0.487400 0.758100
vn -0.115600 -0.635900 0.763100
vn 0.115600 -0.635900 0.763100
vn 0.424200 -0.621100 0.659000
vn -0.424200 -0.621100 0.659000
vn 0.476700 -0.355700 0.803900
vn -0.476700 -0.355700 0.803900
vn 0.587100 -0.083900 0.805200
vn -0.587100 -0.083900 0.805200
vn 0.577400 0.115500 0.808300
vn -0.565700 0.119700 0.815900
vn 0.521400 0.657400 0.544100
vn -0.408200 0.408200 0.816500
vn 0.335800 0.347800 0.875400
vn -0.335800 0.347800 0.875400
vn 0.145200 0.377400 0.914600
vn -0.145200 0.377400 0.914600
vn 0.030100 0.230600 0.972600
vn -0.030100 0.230600 0.972600
vn 0.355300 -0.573900 0.737900
vn -0.280400 -0.218100 0.934800
vn 0.262700 -0.225200 0.938200
vn -0.262700 -0.225200 0.938200
vn -0.063100 -0.315600 0.946800
vn 0.376600 -0.833900 0.403500
vn -0.201600 -0.907100 0.369600
vn -0.082300 -0.782200 0.617500
vn -0.335600 -0.239700 0.911000
vn 0.335600 -0.239700 0.911000
vn -0.456800 0.050800 0.888100
vn 0.269200 -0.057700 0.961400
vn -0.024700 0.407200 0.913000
vn 0.024700 0.407200 0.913000
vn -0.048700 0.681500 0.730200
vn 0.021300 0.554600 0.831900
vn 0.337800 0.522100 0.783100
vn -0.377800 0.634200 0.674600
vn 0.498800 0.530000 0.685800
vn -0.498800 0.530000 0.685800
vn 0.789500 -0.315800 0.526300
vn -0.789500 -0.315800 0.526300
vn 0.807000 -0.080700 0.585100
vn -0.807000 -0.080700 0.585100
vn 0.786800 0.121000 0.605200
vn -0.786800 0.121000 0.605200
vn -0.635700 0.681100 -0.363300
vn 0.635700 0.681100 -0.363300
vn -0.850700 0.365000 -0.378300
vn 0.850700 0.365000 -0.378300
vn -0.219700 0.862600 -0.455700
vn 0.266400 0.871000 -0.412700
vn 0.591400 0.748900 -0.299100
vn -0.593200 0.744500 -0.306300
vn 0.365300 0.883300 -0.293800
vn -0.371400 0.868500 -0.328400
vn 0.276000 0.915900 -0.291500
vn -0.276000 0.915900 -0.291500
vn 0.796400 0.132300 -0.590100
vn -0.887300 0.134300 -0.441200
vn 0.544200 -0.752400 -0.371200
vn -0.544200 -0.752400 -0.371200
vn 0.402700 -0.732300 -0.549200
vn -0.402700 -0.732300 -0.549200
vn 0.164900 -0.664400 -0.728900
vn -0.361700 -0.385800 -0.848700
vn 0.301100 -0.012500 -0.953500
vn -0.195200 -0.097600 -0.975900
vn 0.256200 -0.311200 -0.915200
vn 0.010700 -0.563300 -0.826200
vn 0.077900 -0.994800 -0.066300
vn -0.077900 -0.994800 -0.066300
vn 0.109400 -0.971800 -0.208900
vn -0.109400 -0.971800 -0.208900
vn 0.815000 -0.562100 -0.140500
vn -0.815000 -0.562100 -0.140500
vn 0.935800 0.139600 -0.323600
vn -0.935800 0.139600 -0.323600
vn 0.113200 -0.027400 -0.993200
vn -0.113200 -0.027400 -0.993200
vn -0.149700 -0.363500 -0.919500
vn -0.121100 -0.053000 -0.991200
vn 0.370600 -0.678000 -0.634900
vn -0.909400 0.137100 -0.392700
vn 0.919300 0.139300 -0.368200
vn -0.919300 0.139300 -0.368200
vn 0.945700 0.267300 -0.185000
vn -0.917300 0.344000 -0.200700
vn 0.933700 0.281300 -0.221500
vn -0.900400 0.364200 -0.238000
vn 0.950100 0.245500 -0.192200
vn -0.894500 0.433700 0.108400
vn 0.183500 -0.786400 -0.589800
vn -0.159600 -0.957700 -0.239400
vn 0.372700 -0.475900 -0.796600
vn -0.369300 -0.471200 -0.801000
vn 0.326300 -0.834200 -0.444600
vn -0.298600 -0.823600 -0.482100
vn 0.262000 -0.957400 -0.121700
vn -0.262000 -0.957400 -0.121700
vn 0.299600 -0.944300 -0.136200
vn -0.299600 -0.944300 -0.136200
vn 0.864200 -0.473700 0.169600
vn -0.830500 0.333300 -0.446300
vn 0.686900 -0.635800 0.352100
vn -0.686900 -0.635800 0.352100
vn 0.418900 -0.226500 -0.879300
vn -0.295000 -0.045400 -0.954400
vn 0.111900 0.962600 0.246800
vn -0.127200 0.965800 0.226000
vn 0.120800 0.973400 -0.194700
vn -0.120800 0.973400 -0.194700
vn 0.314000 0.571100 -0.758500
vn -0.314000 0.571100 -0.758500
vn 0.323100 0.928800 -0.181700
vn -0.323100 0.928800 -0.181700
vn 0.045200 0.795500 0.604300
vn -0.045200 0.795500 0.604300
vn 0.614400 0.769600 0.173800
vn -0.614400 0.769600 0.173800
vn 0.693500 0.685700 -0.221200
vn -0.693500 0.685700 -0.221200
vn 0.630400 0.251700 -0.734300
vn -0.710400 0.136400 -0.690400
vn 0.317900 0.570400 -0.757400
vn -0.317900 0.570400 -0.757400
vn 0.628900 0.762400 -0.152500
vn -0.628900 0.762400 -0.152500
vn 0.708800 0.683300 0.175200
vn -0.708800 0.683300 0.175200
vn 0.688500 0.383000 0.615800
vn -0.688500 0.383000 0.615800
vn 0.323800 0.943400 -0.072000
vn -0.366900 0.884000 -0.289800
vn 0.154800 0.508000 0.847300
vn -0.285400 0.623700 0.727700
vn -0.181900 0.114500 -0.976600
vn 0.181900 0.114500 -0.976600
vn -0.263800 0.946200 -0.187100
vn 0.263800 0.946200 -0.187100
vn -0.161600 0.184700 0.969400
vn 0.161600 0.184700 0.969400
vn 0.934000 0.225500 0.277300
vn -0.868100 0.089300 -0.488300
vn 0.975800 0.124100 0.180000
vn -0.975800 0.124100 0.180000
vn 0.961300 0.147200 -0.233000
vn -0.961300 0.147200 -0.233000
vn 0.995600 0.089300 -0.028800
vn -0.981700 -0.030400 -0.188200
vn 0.637400 -0.765100 0.091500
vn -0.746600 -0.664600 0.028500
vn 0.372000 -0.924400 0.084500
vn -0.372300 -0.924300 0.084700
vn 0.528100 -0.835400 0.152200
vn -0.528100 -0.835400 0.152200
vn 0.307000 -0.523700 0.794600
vn -0.307000 -0.523700 0.794600
vn 0.732500 -0.636800 0.240700
vn -0.732500 -0.636800 0.240700
vn 0.263700 -0.449900 0.853300
vn -0.263700 -0.449900 0.853300
vn 0.523600 -0.329000 -0.785900
vn -0.588100 -0.307000 -0.748300
vn 0.539600 -0.334300 -0.772700
vn -0.469400 -0.240000 -0.849800
vn 0.214400 -0.834100 -0.508200
vn -0.446300 -0.845200 -0.294100
vn 0.736500 -0.615400 -0.280800
vn -0.697300 -0.661000 -0.277100
vn 0.497200 -0.440800 -0.747300
vn -0.497200 -0.440800 -0.747300
vn 0.324400 0.486700 0.811100
vn -0.369100 0.285500 0.884400
vn 0.464900 0.259300 0.846500
vn -0.464900 0.259300 0.846500
vn 0.181700 -0.007900 0.983300
vn -0.318800 0.199300 0.926600
vn 0.292500 -0.075800 0.953300
vn -0.207600 -0.083600 0.974600
vn 0.584700 -0.219800 0.780900
vn -0.339800 0.082400 0.936900
vn 0.650900 -0.193900 0.734000
vn -0.650900 -0.193900 0.734000
vn 0.407500 0.750600 0.520100
vn -0.407500 0.750600 0.520100
vn -0.265500 0.829600 0.491100
vn 0.265500 0.829600 0.491100
vn -0.788500 0.236600 0.567700
vn 0.857600 0.222300 0.463700
vn -0.524200 -0.354800 0.774200
vn 0.525700 -0.357900 0.771700
vn 0.439000 -0.525200 0.729000
vn -0.466300 -0.599100 0.650900
vn 0.688800 -0.442800 0.574000
vn -0.688800 -0.442800 0.574000
vn 0.630200 -0.765800 0.128200
vn -0.750700 -0.613100 -0.246100
vn -0.217500 0.273300 0.937000
vn 0.178800 0.292300 0.939500
vn 0.904600 -0.386900 -0.179200
vn -0.904600 -0.386900 -0.179200
vn 0.178200 -0.089100 0.980000
vn -0.178200 -0.089100 0.980000
vn -0.233500 0.897200 0.374900
vn 0.233500 0.897200 0.374900
vn 0.717700 0.168900 0.675500
vn -0.448000 -0.448000 0.773700
vn 0.531300 0.584400 0.613400
vn -0.531300 0.584400 0.613400
vn 0.900800 -0.407500 0.150100
vn -0.553400 -0.553400 0.622500
vn 0.581500 -0.521700 0.624300
vn -0.572400 -0.312200 0.758200
vn 0.613800 -0.257100 0.746500
vn -0.559700 -0.553300 0.616900
vn 0.877900 -0.478800 0.007600
vn -0.877900 -0.478800 0.007600
vn 0.871700 -0.444600 -0.206300
vn -0.922700 -0.376500 -0.082500
vn 0.997200 -0.018100 -0.072500
vn -0.997200 -0.018100 -0.072500
vn 0.766100 -0.636300 0.090900
vn -0.766100 -0.636300 0.090900
vn 0.793000 -0.594700 0.132200
vn -0.781500 -0.617600 0.088200
vn 0.702200 -0.702200 0.117000
vn -0.702200 -0.702200 0.117000
vn 0.240800 0.963100 -0.120400
vn -0.124000 0.992100 0.020700
vn 0.925100 0.346900 0.154200
vn -0.943500 0.314500 0.104800
vn 0.707100 -0.707100 0.000000
vn -0.707100 -0.707100 0.000000
vn -0.015700 0.989800 0.141400
vn 0.015700 0.989800 0.141400
vn 0.626600 -0.721100 0.295600
vn -0.626600 -0.721100 0.295600
vn 0.271400 -0.902200 0.335300
vn -0.271400 -0.902200 0.335300
vn -0.865100 -0.485300 -0.126600
vn 0.865100 -0.485300 -0.126600
vn -0.853800 0.232800 -0.465700
vn 0.809600 0.242900 -0.534300
vn -0.543300 0.698500 -0.465700
vn 0.562100 0.823100 -0.080300
vn -0.109600 0.993900 -0.015700
vn 0.007100 0.989900 0.141400
vn 0.173800 0.009700 0.984700
vn -0.104600 0.039200 0.993700
vn 0.413400 0.041300 0.909600
vn -0.246100 0.085200 0.965500
vn 0.322800 -0.046100 0.945300
vn -0.322800 -0.046100 0.945300
vn 0.122000 0.045800 0.991500
vn -0.210400 0.012400 0.977500
vn 0.567900 0.191600 0.800500
vn -0.567900 0.191600 0.800500
vn 0.424400 -0.032000 0.904900
vn -0.378700 -0.036400 0.924800
vn 0.257000 0.072300 0.963700
vn -0.253000 -0.189700 0.948700
vn 0.135100 -0.022500 0.990600
vn -0.135100 -0.022500 0.990600
vn -0.298100 0.745400 0.596300
vn 0.487000 0.608800 0.626200
vn 0.557100 -0.148600 0.817100
vn -0.557100 -0.148600 0.817100
vn 0.472300 -0.198600 0.858800
vn -0.438800 -0.200800 0.875900
vn 0.297500 -0.406200 0.864000
vn -0.578600 -0.133400 0.804600
vn 0.577100 0.216400 0.787500
vn -0.577100 0.216400 0.787500
vn 0.298000 0.580200 0.758000
vn -0.298000 0.580200 0.758000
vn 0.093100 -0.993200 -0.069200
vn -0.093100 -0.993200 -0.069200
vn 0.516100 -0.852700 -0.081200
vn -0.516100 -0.852700 -0.081200
vn 0.926400 -0.246000 0.285100
vn -0.930900 -0.254100 0.262400
vn 0.826700 0.562700 -0.003500
vn -0.846500 0.529100 -0.059500
vn -0.214600 0.924300 -0.315700
vn 0.251100 0.943900 -0.214500
vn -0.419600 0.885100 -0.201200
vn 0.484100 0.874300 -0.036100
vn -0.547000 -0.014400 -0.837000
vn 0.525600 -0.003000 -0.850700
vn -0.255600 -0.074900 -0.963900
vn 0.255600 -0.074900 -0.963900
vn 0.404600 0.026600 -0.914100
vn -0.404600 0.026600 -0.914100
vn -0.733000 0.678600 0.047200
vn 0.807300 0.590100 0.004100
vn 0.684400 -0.171100 -0.708800
vn -0.684400 -0.171100 -0.708800
vn -0.360400 -0.828300 -0.429000
vn 0.360400 -0.828300 -0.429000
vn 0.661700 -0.202600 0.721900
vn -0.661700 -0.202600 0.721900
vn 0.826800 -0.305100 0.472500
vn -0.826800 -0.305100 0.472500
vn 0.407600 -0.790500 0.457000
vn -0.407600 -0.790500 0.457000
vn 0.379100 -0.516300 0.767900
vn -0.379100 -0.516300 0.767900
vn -0.085900 -0.522200 0.848500
vn 0.085900 -0.522200 0.848500
vn -0.266400 -0.848700 0.457000
vn 0.266400 -0.848700 0.457000
vn -0.782400 -0.329400 0.528500
vn 0.760600 -0.340000 0.553100
vn -0.470600 -0.198100 0.859800
vn 0.470600 -0.198100 0.859800
vn -0.464900 0.195800 0.863400
vn 0.464900 0.195800 0.863400
vn -0.765600 0.322300 0.556800
vn 0.768300 0.329300 0.548800
vn -0.256000 0.807300 0.531700
vn 0.248700 0.824900 0.507600
vn -0.082100 0.602300 0.794000
vn 0.101700 0.551800 0.827700
vn 0.332900 0.523100 0.784600
vn -0.386100 0.544600 0.744500
vn 0.424600 0.771100 0.474500
vn -0.405900 0.764100 0.501400
vn 0.825100 0.296800 0.480800
vn -0.829900 0.294000 0.474200
vn 0.688800 0.186800 0.700500
vn -0.661700 0.202600 0.721900
vn 0.840000 0.343600 -0.420000
vn -0.781600 0.305800 -0.543700
vn 0.207400 0.829600 -0.518500
vn -0.203700 0.814600 -0.543100
vn -0.405600 0.760500 -0.507000
vn 0.438100 0.798800 -0.412300
vn -0.864200 0.314300 -0.392800
vn 0.786100 0.327600 -0.524100
vn -0.778200 -0.353700 -0.518800
vn 0.778200 -0.353700 -0.518800
vn -0.438100 -0.798800 -0.412300
vn 0.438100 -0.798800 -0.412300
vn 0.203700 -0.814600 -0.543100
vn -0.203700 -0.814600 -0.543100
vn 0.768300 -0.329300 -0.548800
vn -0.768300 -0.329300 -0.548800
vn 0.136700 -0.874800 0.464800
vn -0.105400 -0.843300 0.527000
vn 0.230300 -0.865600 0.444700
vn -0.191600 -0.862000 0.469300
vn 0.578800 -0.504900 0.640400
vn -0.578800 -0.504900 0.640400
vn 0.776300 -0.063300 0.627200
vn -0.776300 -0.063300 0.627200
vn 0.747100 0.113200 0.655000
vn -0.747100 0.113200 0.655000
vn 0.374700 -0.834500 0.404000
vn -0.374700 -0.834500 0.404000
vn 0.355700 -0.729000 0.584800
vn -0.417700 -0.575100 0.703400
vn 0.694700 -0.419700 0.584100
vn -0.694700 -0.419700 0.584100
vn 0.702800 -0.391500 0.593900
vn -0.553700 -0.297800 0.777700
vn 0.312700 0.342500 0.886000
vn -0.822700 0.360600 0.439500
vn 0.509100 0.648200 0.566300
vn -0.504100 0.644800 0.574500
vn 0.597700 0.556500 0.577100
vn -0.597700 0.556500 0.577100
vn -0.048600 0.656000 0.753200
vn 0.037100 0.668500 0.742800
vn -0.710400 0.271500 0.649400
vn 0.738600 0.376800 0.559000
vn -0.601300 0.526200 0.601300
vn 0.577400 0.577400 0.577400
vn 0.507000 -0.628100 0.590300
vn -0.536400 -0.323000 0.779700
vn 0.222600 -0.469400 0.854500
vn -0.222600 -0.469400 0.854500
vn -0.034800 -0.579200 0.814400
vn 0.107300 -0.501000 0.858800
vn -0.089900 -0.784300 0.613800
vn 0.077000 -0.575900 0.813900
vn 0.054700 -0.169500 0.984000
vn -0.027900 -0.864500 0.501900
vn 0.426000 -0.060900 0.902700
vn -0.168700 -0.312800 0.934700
vn 0.335200 -0.182800 0.924300
vn -0.435000 -0.181200 0.882000
vn 0.357900 -0.306800 0.881900
vn -0.322300 -0.276200 0.905400
vn 0.306900 0.211300 0.928000
vn -0.481500 -0.240800 0.842700
vn -0.159800 0.390300 0.906700
vn 0.159800 0.390300 0.906700
vn 0.681900 -0.291500 0.670900
vn -0.185400 -0.495600 0.848500
vn 0.058500 -0.078100 0.995200
vn -0.058500 -0.078100 0.995200
vn -0.006600 -0.231600 0.972800
vn -0.058500 -0.084500 0.994700
vn 0.100800 -0.710300 0.696600
vn -0.100800 -0.710300 0.696600
vn 0.132200 -0.594700 0.793000
vn -0.132200 -0.594700 0.793000
vn 0.312800 -0.166200 0.935200
vn -0.314300 -0.392800 0.864200
vn 0.328800 -0.036000 0.943700
vn -0.328800 -0.036000 0.943700
vn 0.323300 -0.080800 0.942900
vn -0.323300 -0.080800 0.942900
vn -0.023200 0.051100 0.998400
vn -0.004300 -0.065100 0.997900
vn 0.844700 -0.533500 0.044500
vn -0.844700 -0.533500 0.044500
vn 0.950000 0.269200 -0.158300
vn -0.950000 0.269200 -0.158300
vn 0.069300 0.900400 -0.429400
vn -0.101800 0.916500 -0.387000
vn 0.690500 0.549200 0.470800
vn 0.407100 -0.895600 0.179100
vn -0.431900 -0.863900 0.259200
vn -0.632600 0.535300 0.559600
vn 0.632600 0.535300 0.559600
vn 0.086200 0.775900 0.625000
vn -0.086200 0.775900 0.625000
vn 0.753200 0.287000 0.591800
vn -0.763900 0.297100 0.572900
vn 0.341600 -0.540900 0.768600
vn -0.341600 -0.540900 0.768600
vn 0.050200 0.234300 0.970900
vn -0.037500 0.224700 0.973700
vn -0.130400 -0.608700 0.782600
vn 0.130400 -0.608700 0.782600
vn -0.505900 0.071600 0.859600
vn 0.505900 0.071600 0.859600
vn -0.577400 -0.577400 0.577400
vn 0.577400 -0.577400 0.577400
vn 0.546000 -0.431000 0.718400
vn -0.331900 0.073800 0.940400
vn 0.323100 0.031100 0.945900
vn -0.281500 0.066200 0.957300
vn 0.735700 0.391000 0.553100
vn -0.875300 0.205900 0.437600
vn 0.848000 0.318000 0.424000
vn -0.897300 0.199400 0.393800
vn 0.850500 0.379800 0.363800
vn -0.850500 0.379800 0.363800
vn 0.178300 -0.416100 0.891700
vn -0.252400 -0.865500 0.432700
vn -0.129600 -0.194500 0.972300
vn 0.129600 -0.194500 0.972300
vn -0.447200 0.000000 0.894400
vn 0.447200 0.000000 0.894400
vn -0.646300 0.733700 0.209600
vn 0.646300 0.733700 0.209600
vn 0.021700 -0.303100 0.952700
vn -0.021700 -0.303100 0.952700
vn -0.468100 -0.223900 0.854800
vn 0.468100 -0.223900 0.854800
vn -0.271000 0.027100 0.962200
vn 0.271000 0.027100 0.962200
vn -0.171700 -0.009000 0.985100
vn 0.259500 0.103800 0.960100
vn -0.433200 -0.487400 0.758100
vn 0.668400 -0.459500 0.584900
vn -0.159900 -0.879700 0.447800
vn 0.159900 -0.879700 0.447800
vn 0.390000 -0.589500 0.707400
vn -0.390000 -0.589500 0.707400
vn 0.654700 -0.458900 0.600700
vn -0.654700 -0.458900 0.600700
vn 0.537800 -0.114400 0.835300
vn -0.537800 -0.114400 0.835300
vn 0.565700 0.119700 0.815900
vn -0.577400 0.115500 0.808300
vn 0.408200 0.408200 0.816500
vn -0.521400 0.657400 0.544100
vn 0.179600 0.788200 0.588600
vn -0.179600 0.788200 0.588600
vn 0.188100 0.338700 0.921900
vn -0.188100 0.338700 0.921900
vn -0.087000 0.275600 0.957300
vn 0.087000 0.275600 0.957300
vn 0.280400 -0.218100 0.934800
vn -0.355300 -0.573900 0.737900
vn 0.301500 -0.301500 0.904500
vn -0.301500 -0.301500 0.904500
vn -0.376600 -0.833900 0.403500
vn 0.063100 -0.315600 0.946800
vn 0.082300 -0.782200 0.617500
vn 0.201600 -0.907100 0.369600
vn -0.370700 -0.285100 0.883900
vn 0.370700 -0.285100 0.883900
vn -0.269200 -0.057700 0.961400
vn 0.456800 0.050800 0.888100
vn -0.279700 0.524500 0.804200
vn 0.279700 0.524500 0.804200
vn -0.021300 0.554600 0.831900
vn 0.048700 0.681500 0.730200
vn 0.377800 0.634200 0.674600
vn -0.337800 0.522100 0.783100
vn 0.542500 -0.339100 0.768600
vn -0.542500 -0.339100 0.768600
vn 0.830500 -0.061500 0.553600
vn -0.830500 -0.061500 0.553600
vn 0.781400 0.111600 0.614000
vn -0.781400 0.111600 0.614000
vn -0.433800 0.888800 -0.148100
vn 0.433800 0.888800 -0.148100
vn -0.851500 0.374400 -0.367000
vn 0.851500 0.374400 -0.367000
vn -0.266400 0.871000 -0.412700
vn 0.219700 0.862600 -0.455700
vn 0.593200 0.744500 -0.306300
vn -0.591400 0.748900 -0.299100
vn 0.371400 0.868500 -0.328400
vn -0.365300 0.883300 -0.293800
vn 0.290100 0.914100 -0.283300
vn -0.290100 0.914100 -0.283300
vn 0.887300 0.134300 -0.441200
vn -0.796400 0.132300 -0.590100
vn 0.510800 -0.664900 -0.545000
vn -0.510800 -0.664900 -0.545000
vn 0.369500 -0.856600 -0.360100
vn -0.369500 -0.856600 -0.360100
vn 0.361700 -0.385800 -0.848700
vn -0.164900 -0.664400 -0.728900
vn 0.195200 -0.097600 -0.975900
vn -0.301100 -0.012500 -0.953500
vn -0.010700 -0.563300 -0.826200
vn -0.256200 -0.311200 -0.915200
vn 0.153300 -0.964900 -0.213400
vn -0.153300 -0.964900 -0.213400
vn 0.126000 -0.962400 -0.240600
vn -0.126000 -0.962400 -0.240600
vn 0.939600 0.157300 -0.304100
vn -0.939600 0.157300 -0.304100
vn 0.927800 0.183800 -0.324600
vn -0.927800 0.183800 -0.324600
vn 0.219200 0.076600 -0.972700
vn -0.219200 0.076600 -0.972700
vn 0.121100 -0.053000 -0.991200
vn 0.149700 -0.363500 -0.919500
vn 0.909400 0.137100 -0.392700
vn -0.370600 -0.678000 -0.634900
vn 0.920200 0.135500 -0.367200
vn -0.920200 0.135500 -0.367200
vn 0.917300 0.344000 -0.200700
vn -0.945700 0.267300 -0.185000
vn 0.900400 0.364200 -0.238000
vn -0.933700 0.281300 -0.221500
vn 0.894500 0.433700 0.108400
vn -0.950100 0.245500 -0.192200
vn 0.159600 -0.957700 -0.239400
vn -0.183500 -0.786400 -0.589800
vn 0.369300 -0.471200 -0.801000
vn -0.372700 -0.475900 -0.796600
vn 0.298600 -0.823600 -0.482100
vn -0.326300 -0.834200 -0.444600
vn 0.299500 -0.944200 -0.136800
vn -0.299500 -0.944200 -0.136800
vn 0.328700 -0.916300 -0.229100
vn -0.328700 -0.916300 -0.229100
vn 0.830500 0.333300 -0.446300
vn -0.864200 -0.473700 0.169600
vn 0.916600 -0.374000 0.141400
vn -0.916600 -0.374000 0.141400
vn 0.295000 -0.045400 -0.954400
vn -0.418900 -0.226500 -0.879300
vn 0.127200 0.965800 0.226000
vn -0.111900 0.962600 0.246800
vn 0.132000 0.975000 -0.178800
vn -0.132000 0.975000 -0.178800
vn 0.387800 0.619200 -0.682800
vn -0.387800 0.619200 -0.682800
vn 0.495100 0.861800 -0.110000
vn -0.495100 0.861800 -0.110000
vn 0.256100 0.644700 0.720200
vn -0.256100 0.644700 0.720200
vn 0.596600 0.788800 0.147900
vn -0.596600 0.788800 0.147900
vn 0.712500 0.675500 -0.190000
vn -0.712500 0.675500 -0.190000
vn 0.710400 0.136400 -0.690400
vn -0.630400 0.251700 -0.734300
vn 0.682300 0.231800 -0.693300
vn -0.682300 0.231800 -0.693300
vn 0.657400 0.725400 -0.204000
vn -0.657400 0.725400 -0.204000
vn 0.728900 0.672900 0.126200
vn -0.728900 0.672900 0.126200
vn 0.779100 0.407400 0.476400
vn -0.779100 0.407400 0.476400
vn 0.366900 0.884000 -0.289800
vn -0.323800 0.943400 -0.072000
vn 0.285400 0.623700 0.727700
vn -0.154800 0.508000 0.847300
vn -0.168100 0.100500 -0.980600
vn 0.168100 0.100500 -0.980600
vn 0.292500 0.567400 0.769700
vn -0.292500 0.567400 0.769700
vn 0.868100 0.089300 -0.488300
vn -0.934000 0.225500 0.277300
vn 0.927600 0.076200 0.365700
vn -0.927600 0.076200 0.365700
vn 0.975000 0.216900 0.049000
vn -0.975000 0.216900 0.049000
vn 0.981700 -0.030400 -0.188200
vn -0.995600 0.089300 -0.028800
vn 0.746600 -0.664600 0.028500
vn -0.637400 -0.765100 0.091500
vn 0.372300 -0.924300 0.084700
vn -0.372000 -0.924400 0.084500
vn 0.398600 -0.875400 0.273400
vn -0.398600 -0.875400 0.273400
vn 0.632800 -0.764200 0.124700
vn -0.632800 -0.764200 0.124700
vn 0.588100 -0.307000 -0.748300
vn -0.523600 -0.329000 -0.785900
vn 0.469400 -0.240000 -0.849800
vn -0.539600 -0.334300 -0.772700
vn 0.446300 -0.845200 -0.294100
vn -0.214400 -0.834100 -0.508200
vn 0.697300 -0.661000 -0.277100
vn -0.736500 -0.615400 -0.280800
vn 0.369100 0.285500 0.884400
vn -0.324400 0.486700 0.811100
vn 0.446700 0.097500 0.889400
vn -0.446700 0.097500 0.889400
vn 0.318800 0.199300 0.926600
vn -0.181700 -0.007900 0.983300
vn 0.207600 -0.083600 0.974600
vn -0.292500 -0.075800 0.953300
vn 0.339800 0.082400 0.936900
vn -0.584700 -0.219800 0.780900
vn 0.595700 -0.385000 0.704900
vn -0.595700 -0.385000 0.704900
vn 0.484300 0.558000 0.673800
vn -0.484300 0.558000 0.673800
vn -0.267500 0.831800 0.486400
vn 0.267500 0.831800 0.486400
vn -0.857600 0.222300 0.463700
vn 0.788500 0.236600 0.567700
vn -0.525700 -0.357900 0.771700
vn 0.524200 -0.354800 0.774200
vn 0.466300 -0.599100 0.650900
vn -0.439000 -0.525200 0.729000
vn 0.710400 -0.456700 0.535600
vn -0.710400 -0.456700 0.535600
vn 0.750700 -0.613100 -0.246100
vn -0.630200 -0.765800 0.128200
vn -0.178800 0.292300 0.939500
vn 0.217500 0.273300 0.937000
vn 0.904200 -0.357800 -0.233200
vn -0.904200 -0.357800 -0.233200
vn 0.040000 0.339900 0.939600
vn -0.040000 0.339900 0.939600
vn 0.273400 0.906400 0.322100
vn -0.273400 0.906400 0.322100
vn 0.448000 -0.448000 0.773700
vn -0.717700 0.168900 0.675500
vn 0.553400 -0.553400 0.622500
vn -0.900800 -0.407500 0.150100
vn 0.572400 -0.312200 0.758200
vn -0.581500 -0.521700 0.624300
vn 0.559700 -0.553300 0.616900
vn -0.613800 -0.257100 0.746500
vn 0.827100 0.532300 -0.180200
vn -0.827100 0.532300 -0.180200
vn 0.922700 -0.376500 -0.082500
vn -0.871700 -0.444600 -0.206300
vn 0.689500 -0.664400 0.288300
vn -0.689500 -0.664400 0.288300
vn 0.781500 -0.617600 0.088200
vn -0.793000 -0.594700 0.132200
vn 0.124000 0.992100 0.020700
vn -0.240800 0.963100 -0.120400
vn 0.943500 0.314500 0.104800
vn -0.925100 0.346900 0.154200
vn 0.621300 -0.776700 0.103600
vn -0.621300 -0.776700 0.103600
vn 0.000000 1.000000 0.000000
vn 0.619700 -0.689900 0.374200
vn -0.619700 -0.689900 0.374200
vn 0.275200 -0.880800 0.385300
vn -0.275200 -0.880800 0.385300
vn -0.792900 -0.525200 -0.308900
vn 0.792900 -0.525200 -0.308900
vn -0.809600 0.242900 -0.534300
vn 0.853800 0.232800 -0.465700
vn -0.562100 0.823100 -0.080300
vn 0.543300 0.698500 -0.465700
vn -0.007100 0.989900 0.141400
vn 0.109600 0.993900 -0.015700
vn 0.104600 0.039200 0.993700
vn -0.173800 0.009700 0.984700
vn 0.246100 0.085200 0.965500
vn -0.413400 0.041300 0.909600
vn 0.300900 0.092600 0.949100
vn -0.300900 0.092600 0.949100
vn 0.210400 0.012400 0.977500
vn -0.122000 0.045800 0.991500
vn -0.009900 0.386700 0.922100
vn 0.009900 0.386700 0.922100
vn 0.378700 -0.036400 0.924800
vn -0.424400 -0.032000 0.904900
vn 0.253000 -0.189700 0.948700
vn -0.257000 0.072300 0.963700
vn -0.487000 0.608800 0.626200
vn 0.298100 0.745400 0.596300
vn 0.669300 0.180200 0.720800
vn -0.669300 0.180200 0.720800
vn 0.438800 -0.200800 0.875900
vn -0.472300 -0.198600 0.858800
vn 0.578600 -0.133400 0.804600
vn -0.297500 -0.406200 0.864000
vn 0.500200 0.283300 0.818200
vn -0.500200 0.283300 0.818200
vn 0.092900 -0.991200 -0.094400
vn -0.092900 -0.991200 -0.094400
vn 0.468800 -0.871500 0.144200
vn -0.468800 -0.871500 0.144200
vn 0.930900 -0.254100 0.262400
vn -0.926400 -0.246000 0.285100
vn 0.846500 0.529100 -0.059500
vn -0.826700 0.562700 -0.003500
vn -0.251100 0.943900 -0.214500
vn 0.214600 0.924300 -0.315700
vn -0.484100 0.874300 -0.036100
vn 0.419600 0.885100 -0.201200
vn -0.525600 -0.003000 -0.850700
vn 0.547000 -0.014400 -0.837000
vn -0.146600 0.010400 -0.989100
vn 0.146600 0.010400 -0.989100
vn -0.807300 0.590100 0.004100
vn 0.733000 0.678600 0.047200
vn 0.420000 -0.229100 -0.878100
vn -0.420000 -0.229100 -0.878100
vn -0.068700 -0.994300 -0.081800
vn 0.068700 -0.994300 -0.081800
usemtl None
s off
f 47//1 1//1 3//1
f 4//2 2//2 48//2
f 45//3 3//3 5//3
f 6//4 4//4 46//4
f 3//5 9//5 7//5
f 8//6 10//6 4//6
f 1//7 11//7 9//7
f 10//8 12//8 2//8
f 11//9 13//9 15//9
f 16//10 14//10 12//10
f 9//11 15//11 17//11
f 18//12 16//12 10//12
f 21//13 19//13 17//13
f 22//14 16//14 18//14
f 13//15 23//15 21//15
f 22//16 24//16 14//16
f 23//17 25//17 27//17
f 28//18 26//18 24//18
f 27//19 29//19 19//19
f 28//20 22//20 20//20
f 33//21 31//21 29//21
f 34//22 28//22 30//22
f 35//23 33//23 27//23
f 36//24 26//24 28//24
f 37//25 39//25 33//25
f 38//26 36//26 34//26
f 39//27 41//27 31//27
f 40//28 34//28 32//28
f 45//29 43//29 41//29
f 46//30 40//30 42//30
f 47//31 45//31 39//31
f 48//32 38//32 40//32
f 37//33 51//33 49//33
f 38//34 48//34 50//34
f 35//35 53//35 51//35
f 36//36 38//36 52//36
f 25//37 55//37 53//37
f 26//38 36//38 54//38
f 23//39 57//39 55//39
f 24//40 26//40 56//40
f 23//41 13//41 59//41
f 60//42 14//42 24//42
f 13//43 11//43 63//43
f 64//44 12//44 14//44
f 11//45 1//45 65//45
f 66//46 2//46 12//46
f 1//47 47//47 49//47
f 50//48 48//48 2//48
f 61//49 65//49 49//49
f 50//50 66//50 62//50
f 63//51 65//51 61//51
f 62//52 66//52 64//52
f 61//53 59//53 63//53
f 64//54 60//54 62//54
f 61//55 57//55 59//55
f 60//56 58//56 62//56
f 61//57 55//57 57//57
f 58//58 56//58 62//58
f 61//59 53//59 55//59
f 56//60 54//60 62//60
f 61//61 51//61 53//61
f 54//62 52//62 62//62
f 61//63 49//63 51//63
f 52//64 50//64 62//64
f 174//65 176//65 91//65
f 175//66 90//66 91//66
f 172//67 174//67 89//67
f 173//68 88//68 90//68
f 85//69 170//69 172//69
f 173//70 171//70 86//70
f 83//71 168//71 170//71
f 171//72 169//72 84//72
f 81//73 166//73 168//73
f 169//74 167//74 82//74
f 79//75 92//75 146//75
f 147//76 93//76 80//76
f 94//77 148//77 146//77
f 95//78 93//78 147//78
f 94//79 96//79 150//79
f 151//80 97//80 95//80
f 98//81 152//81 150//81
f 99//82 97//82 151//82
f 100//83 154//83 152//83
f 101//84 99//84 153//84
f 102//85 156//85 154//85
f 103//86 101//86 155//86
f 102//87 104//87 158//87
f 159//88 105//88 103//88
f 106//89 160//89 158//89
f 107//90 105//90 159//90
f 108//91 162//91 160//91
f 109//92 107//92 161//92
f 67//93 68//93 162//93
f 67//94 109//94 163//94
f 128//95 160//95 162//95
f 129//96 111//96 163//96
f 128//97 179//97 158//97
f 159//98 180//98 129//98
f 156//99 158//99 179//99
f 157//100 127//100 180//100
f 154//101 156//101 126//101
f 155//102 125//102 127//102
f 152//103 154//103 124//103
f 153//104 123//104 125//104
f 150//105 152//105 122//105
f 151//106 121//106 123//106
f 148//107 150//107 120//107
f 149//108 119//108 121//108
f 146//109 148//109 118//109
f 147//110 117//110 119//110
f 164//111 146//111 116//111
f 165//112 115//112 117//112
f 114//113 181//113 177//113
f 177//114 182//114 115//114
f 162//115 68//115 112//115
f 163//116 111//116 113//116
f 112//117 68//117 178//117
f 178//118 68//118 113//118
f 181//119 183//119 178//119
f 182//120 177//120 178//120
f 135//121 137//121 176//121
f 176//122 137//122 136//122
f 133//123 135//123 174//123
f 175//124 136//124 134//124
f 133//125 172//125 170//125
f 134//126 132//126 171//126
f 166//127 187//127 185//127
f 186//128 188//128 167//128
f 131//129 170//129 168//129
f 169//130 171//130 132//130
f 190//131 189//131 187//131
f 190//132 145//132 188//132
f 187//133 189//133 69//133
f 188//134 186//134 69//134
f 131//135 185//135 69//135
f 132//135 130//135 69//135
f 142//136 193//136 191//136
f 192//137 194//137 143//137
f 140//138 195//138 193//138
f 194//139 196//139 141//139
f 197//140 195//140 140//140
f 198//141 139//141 141//141
f 71//142 197//142 139//142
f 71//143 138//143 139//143
f 144//144 191//144 70//144
f 145//145 190//145 70//145
f 191//146 206//146 208//146
f 192//147 70//147 208//147
f 71//148 199//148 200//148
f 201//149 199//149 71//149
f 197//150 200//150 202//150
f 203//151 201//151 198//151
f 202//152 204//152 193//152
f 203//153 196//153 194//153
f 193//154 204//154 206//154
f 207//155 205//155 194//155
f 204//156 202//156 200//156
f 205//157 199//157 201//157
f 199//158 208//158 206//158
f 207//159 208//159 199//159
f 139//160 140//160 164//160
f 165//161 141//161 139//161
f 140//162 142//162 211//162
f 212//163 143//163 141//163
f 144//164 213//164 211//164
f 145//165 143//165 212//165
f 187//166 166//166 213//166
f 188//167 145//167 214//167
f 209//168 213//168 166//168
f 210//169 82//169 167//169
f 215//170 211//170 213//170
f 216//171 210//171 214//171
f 79//172 164//172 211//172
f 212//173 165//173 80//173
f 130//174 72//174 222//174
f 130//175 132//175 223//175
f 133//176 131//176 222//176
f 223//177 132//177 134//177
f 135//178 133//178 220//178
f 221//179 134//179 136//179
f 137//180 135//180 218//180
f 219//181 136//181 137//181
f 218//182 229//182 231//182
f 219//183 217//183 231//183
f 218//184 220//184 227//184
f 228//185 221//185 219//185
f 220//186 222//186 225//186
f 226//143 223//143 221//143
f 72//187 224//187 225//187
f 72//188 223//188 226//188
f 224//189 231//189 229//189
f 230//190 231//190 224//190
f 225//191 229//191 227//191
f 228//192 230//192 226//192
f 183//193 181//193 234//193
f 235//194 182//194 184//194
f 112//195 183//195 232//195
f 233//196 184//196 113//196
f 112//197 254//197 256//197
f 113//198 111//198 257//198
f 114//199 252//199 234//199
f 115//200 182//200 235//200
f 114//201 116//201 250//201
f 251//202 117//202 115//202
f 116//203 118//203 248//203
f 249//204 119//204 117//204
f 118//205 120//205 246//205
f 247//206 121//206 119//206
f 120//207 122//207 244//207
f 245//208 123//208 121//208
f 124//209 242//209 244//209
f 125//210 123//210 245//210
f 126//211 240//211 242//211
f 127//212 125//212 243//212
f 126//213 179//213 236//213
f 237//214 180//214 127//214
f 179//215 128//215 238//215
f 239//216 129//216 180//216
f 128//217 110//217 256//217
f 257//218 111//218 129//218
f 256//219 258//219 276//219
f 257//220 239//220 277//220
f 236//221 238//221 276//221
f 277//222 239//222 237//222
f 236//223 278//223 274//223
f 237//224 241//224 275//224
f 240//225 274//225 272//225
f 241//226 243//226 273//226
f 244//227 242//227 272//227
f 273//228 243//228 245//228
f 244//229 270//229 268//229
f 245//230 247//230 269//230
f 248//231 246//231 268//231
f 269//232 247//232 249//232
f 248//233 266//233 264//233
f 249//234 251//234 265//234
f 250//235 264//235 262//235
f 251//236 253//236 263//236
f 234//237 252//237 262//237
f 263//238 253//238 235//238
f 256//239 254//239 260//239
f 261//240 255//240 257//240
f 254//241 232//241 282//241
f 283//242 233//242 255//242
f 232//243 234//243 280//243
f 281//244 235//244 233//244
f 67//245 108//245 284//245
f 285//246 109//246 67//246
f 108//247 106//247 286//247
f 287//248 107//248 109//248
f 104//249 288//249 286//249
f 105//250 107//250 287//250
f 102//251 290//251 288//251
f 103//252 105//252 289//252
f 100//253 292//253 290//253
f 101//254 103//254 291//254
f 100//255 98//255 294//255
f 295//256 99//256 101//256
f 96//257 296//257 294//257
f 97//258 99//258 295//258
f 96//259 94//259 298//259
f 299//260 95//260 97//260
f 94//261 92//261 300//261
f 301//262 93//262 95//262
f 309//263 328//263 338//263
f 309//264 308//264 339//264
f 308//265 338//265 336//265
f 308//266 307//266 337//266
f 307//267 336//267 340//267
f 307//268 306//268 341//268
f 89//269 91//269 306//269
f 306//270 91//270 90//270
f 87//271 89//271 340//271
f 341//272 90//272 88//272
f 85//273 87//273 334//273
f 335//274 88//274 86//274
f 83//275 85//275 330//275
f 331//276 86//276 84//276
f 330//277 336//277 338//277
f 339//278 337//278 331//278
f 334//279 340//279 336//279
f 335//280 331//280 337//280
f 332//281 338//281 328//281
f 333//282 327//282 329//282
f 81//283 83//283 332//283
f 333//284 84//284 82//284
f 342//285 344//285 215//285
f 343//286 210//286 216//286
f 326//287 342//287 209//287
f 327//288 82//288 210//288
f 215//289 344//289 346//289
f 216//290 80//290 347//290
f 346//291 300//291 92//291
f 347//292 80//292 93//292
f 324//293 352//293 304//293
f 325//294 77//294 304//294
f 352//295 350//295 78//295
f 353//296 304//296 78//296
f 78//297 350//297 348//297
f 349//298 351//298 78//298
f 305//299 348//299 328//299
f 329//300 349//300 305//300
f 328//301 348//301 342//301
f 329//302 327//302 343//302
f 296//303 298//303 318//303
f 319//304 299//304 297//304
f 316//305 324//305 77//305
f 317//306 76//306 77//306
f 358//307 356//307 303//307
f 359//308 302//308 303//308
f 303//309 356//309 354//309
f 355//310 357//310 303//310
f 75//311 354//311 316//311
f 317//312 355//312 75//312
f 292//313 294//313 362//313
f 363//314 295//314 293//314
f 364//315 362//315 368//315
f 369//316 363//316 365//316
f 366//317 368//317 370//317
f 371//318 369//318 367//318
f 372//319 370//319 376//319
f 377//320 371//320 373//320
f 378//321 374//321 376//321
f 379//322 315//322 377//322
f 316//323 354//323 374//323
f 375//324 355//324 317//324
f 354//325 356//325 372//325
f 373//326 357//326 355//326
f 356//327 358//327 366//327
f 367//328 359//328 357//328
f 358//329 360//329 364//329
f 365//330 361//330 359//330
f 292//331 364//331 360//331
f 293//332 291//332 361//332
f 360//333 358//333 302//333
f 361//334 74//334 302//334
f 284//335 286//335 288//335
f 289//336 287//336 285//336
f 284//337 290//337 360//337
f 361//338 291//338 285//338
f 73//339 284//339 74//339
f 74//340 285//340 73//340
f 296//341 310//341 362//341
f 297//342 295//342 363//342
f 310//343 312//343 368//343
f 369//344 313//344 311//344
f 312//345 382//345 370//345
f 371//346 383//346 313//346
f 376//347 370//347 382//347
f 377//348 315//348 383//348
f 350//349 386//349 384//349
f 351//350 349//350 385//350
f 384//351 386//351 320//351
f 385//352 319//352 321//352
f 298//353 300//353 384//353
f 385//354 301//354 299//354
f 300//355 344//355 342//355
f 343//356 345//356 301//356
f 342//357 348//357 384//357
f 385//358 349//358 343//358
f 300//359 346//359 344//359
f 345//360 347//360 301//360
f 322//361 380//361 378//361
f 323//362 315//362 379//362
f 378//363 380//363 324//363
f 379//364 317//364 325//364
f 386//365 380//365 322//365
f 387//366 321//366 323//366
f 352//367 380//367 386//367
f 353//368 351//368 387//368
f 324//369 380//369 352//369
f 353//370 381//370 325//370
f 388//371 414//371 402//371
f 389//372 401//372 403//372
f 400//373 402//373 404//373
f 405//374 403//374 401//374
f 404//375 406//375 396//375
f 405//376 399//376 397//376
f 406//377 408//377 394//377
f 407//378 397//378 395//378
f 408//379 410//379 392//379
f 409//380 395//380 393//380
f 392//381 410//381 412//381
f 413//382 411//382 393//382
f 410//383 420//383 418//383
f 419//384 421//384 411//384
f 408//385 422//385 420//385
f 421//386 423//386 409//386
f 424//387 422//387 408//387
f 425//388 407//388 409//388
f 426//389 424//389 406//389
f 427//390 405//390 407//390
f 428//391 426//391 404//391
f 429//392 403//392 405//392
f 402//393 414//393 416//393
f 417//394 415//394 403//394
f 320//395 444//395 442//395
f 321//396 319//396 443//396
f 390//397 412//397 444//397
f 391//398 321//398 445//398
f 310//399 318//399 442//399
f 443//400 319//400 311//400
f 382//401 430//401 414//401
f 415//402 431//402 383//402
f 412//403 418//403 440//403
f 441//404 419//404 413//404
f 446//405 444//405 440//405
f 447//406 439//406 441//406
f 434//407 446//407 438//407
f 439//408 447//408 435//408
f 448//409 446//409 434//409
f 449//410 433//410 435//410
f 448//411 432//411 450//411
f 449//412 431//412 451//412
f 430//413 450//413 416//413
f 431//414 415//414 417//414
f 312//415 448//415 430//415
f 431//416 449//416 313//416
f 442//417 446//417 448//417
f 443//418 313//418 449//418
f 442//419 444//419 446//419
f 447//420 445//420 443//420
f 416//421 450//421 452//421
f 453//422 451//422 417//422
f 432//423 462//423 452//423
f 433//424 451//424 453//424
f 432//425 434//425 460//425
f 461//426 435//426 433//426
f 436//427 458//427 460//427
f 437//428 435//428 461//428
f 438//429 456//429 458//429
f 439//430 437//430 459//430
f 438//431 440//431 454//431
f 455//432 441//432 439//432
f 440//433 418//433 474//433
f 475//434 419//434 441//434
f 428//435 416//435 476//435
f 477//436 417//436 429//436
f 426//437 428//437 464//437
f 465//438 429//438 427//438
f 424//439 426//439 466//439
f 467//440 427//440 425//440
f 424//441 468//441 470//441
f 425//442 423//442 471//442
f 422//443 470//443 472//443
f 423//444 421//444 473//444
f 420//445 472//445 474//445
f 421//446 419//446 475//446
f 456//447 480//447 478//447
f 457//448 459//448 479//448
f 480//449 482//449 484//449
f 481//450 479//450 485//450
f 484//451 482//451 488//451
f 489//452 483//452 485//452
f 488//453 490//453 492//453
f 489//454 487//454 493//454
f 464//455 476//455 486//455
f 487//456 477//456 465//456
f 484//457 486//457 476//457
f 485//458 453//458 477//458
f 462//459 478//459 484//459
f 463//460 453//460 485//460
f 458//461 478//461 462//461
f 463//462 479//462 459//462
f 474//463 480//463 456//463
f 475//464 455//464 457//464
f 472//465 482//465 480//465
f 481//466 483//466 473//466
f 488//467 482//467 472//467
f 489//468 471//468 473//468
f 490//469 488//469 470//469
f 491//470 469//470 471//470
f 466//471 492//471 490//471
f 491//472 493//472 467//472
f 464//473 492//473 466//473
f 467//474 493//474 465//474
f 392//475 390//475 504//475
f 505//476 391//476 393//476
f 394//477 392//477 502//477
f 503//478 393//478 395//478
f 394//479 500//479 498//479
f 395//480 397//480 499//480
f 396//481 498//481 496//481
f 397//482 399//482 497//482
f 398//483 496//483 494//483
f 399//484 401//484 495//484
f 400//485 494//485 506//485
f 401//486 389//486 507//486
f 502//487 504//487 506//487
f 503//488 495//488 507//488
f 494//489 496//489 500//489
f 501//490 497//490 495//490
f 496//491 498//491 500//491
f 501//492 499//492 497//492
f 382//493 388//493 506//493
f 383//494 315//494 507//494
f 314//495 506//495 504//495
f 505//496 507//496 315//496
f 320//497 322//497 504//497
f 505//498 323//498 321//498
f 45//499 47//499 3//499
f 46//500 4//500 48//500
f 43//501 45//501 5//501
f 44//502 6//502 46//502
f 5//503 3//503 7//503
f 6//504 8//504 4//504
f 3//505 1//505 9//505
f 4//506 10//506 2//506
f 9//507 11//507 15//507
f 10//508 16//508 12//508
f 7//509 9//509 17//509
f 8//510 18//510 10//510
f 15//511 21//511 17//511
f 20//512 22//512 18//512
f 15//513 13//513 21//513
f 16//514 22//514 14//514
f 21//515 23//515 27//515
f 22//516 28//516 24//516
f 21//517 27//517 19//517
f 30//518 28//518 20//518
f 27//519 33//519 29//519
f 32//520 34//520 30//520
f 25//521 35//521 27//521
f 34//522 36//522 28//522
f 35//523 37//523 33//523
f 40//524 38//524 34//524
f 33//525 39//525 31//525
f 42//526 40//526 32//526
f 39//527 45//527 41//527
f 44//528 46//528 42//528
f 37//529 47//529 39//529
f 46//530 48//530 40//530
f 47//531 37//531 49//531
f 52//532 38//532 50//532
f 37//533 35//533 51//533
f 54//534 36//534 52//534
f 35//535 25//535 53//535
f 56//536 26//536 54//536
f 25//537 23//537 55//537
f 58//538 24//538 56//538
f 57//539 23//539 59//539
f 58//540 60//540 24//540
f 59//541 13//541 63//541
f 60//542 64//542 14//542
f 63//543 11//543 65//543
f 64//544 66//544 12//544
f 65//545 1//545 49//545
f 66//546 50//546 2//546
f 89//547 174//547 91//547
f 176//548 175//548 91//548
f 87//549 172//549 89//549
f 175//550 173//550 90//550
f 87//551 85//551 172//551
f 88//552 173//552 86//552
f 85//553 83//553 170//553
f 86//554 171//554 84//554
f 83//555 81//555 168//555
f 84//556 169//556 82//556
f 164//557 79//557 146//557
f 165//558 147//558 80//558
f 92//559 94//559 146//559
f 149//560 95//560 147//560
f 148//561 94//561 150//561
f 149//562 151//562 95//562
f 96//563 98//563 150//563
f 153//564 99//564 151//564
f 98//565 100//565 152//565
f 155//566 101//566 153//566
f 100//567 102//567 154//567
f 157//568 103//568 155//568
f 156//569 102//569 158//569
f 157//570 159//570 103//570
f 104//571 106//571 158//571
f 161//572 107//572 159//572
f 106//573 108//573 160//573
f 163//574 109//574 161//574
f 108//575 67//575 162//575
f 68//576 67//576 163//576
f 110//577 128//577 162//577
f 161//578 129//578 163//578
f 160//579 128//579 158//579
f 161//580 159//580 129//580
f 126//581 156//581 179//581
f 159//582 157//582 180//582
f 124//583 154//583 126//583
f 157//584 155//584 127//584
f 122//585 152//585 124//585
f 155//586 153//586 125//586
f 120//587 150//587 122//587
f 153//588 151//588 123//588
f 118//589 148//589 120//589
f 151//590 149//590 121//590
f 116//591 146//591 118//591
f 149//592 147//592 119//592
f 114//593 164//593 116//593
f 147//594 165//594 117//594
f 164//595 114//595 177//595
f 165//596 177//596 115//596
f 110//597 162//597 112//597
f 68//598 163//598 113//598
f 183//599 112//599 178//599
f 184//600 178//600 113//600
f 177//601 181//601 178//601
f 184//602 182//602 178//602
f 174//603 135//603 176//603
f 175//604 176//604 136//604
f 172//605 133//605 174//605
f 173//606 175//606 134//606
f 131//607 133//607 170//607
f 173//608 134//608 171//608
f 168//609 166//609 185//609
f 169//610 186//610 167//610
f 185//611 131//611 168//611
f 186//612 169//612 132//612
f 144//613 190//613 187//613
f 189//131 190//131 188//131
f 185//614 187//614 69//614
f 189//133 188//133 69//133
f 130//135 131//135 69//135
f 186//135 132//135 69//135
f 144//615 142//615 191//615
f 145//616 192//616 143//616
f 142//617 140//617 193//617
f 143//618 194//618 141//618
f 139//619 197//619 140//619
f 196//620 198//620 141//620
f 138//186 71//186 139//186
f 198//621 71//621 139//621
f 190//622 144//622 70//622
f 192//623 145//623 70//623
f 70//146 191//146 208//146
f 207//147 192//147 208//147
f 197//624 71//624 200//624
f 198//625 201//625 71//625
f 195//626 197//626 202//626
f 196//627 203//627 198//627
f 195//628 202//628 193//628
f 205//629 203//629 194//629
f 191//630 193//630 206//630
f 192//631 207//631 194//631
f 199//632 204//632 200//632
f 203//633 205//633 201//633
f 204//634 199//634 206//634
f 205//635 207//635 199//635
f 177//636 139//636 164//636
f 177//637 165//637 139//637
f 164//638 140//638 211//638
f 165//639 212//639 141//639
f 142//640 144//640 211//640
f 214//641 145//641 212//641
f 144//642 187//642 213//642
f 167//643 188//643 214//643
f 81//644 209//644 166//644
f 214//645 210//645 167//645
f 209//646 215//646 213//646
f 212//647 216//647 214//647
f 215//648 79//648 211//648
f 216//649 212//649 80//649
f 131//650 130//650 222//650
f 72//651 130//651 223//651
f 220//652 133//652 222//652
f 221//653 223//653 134//653
f 218//654 135//654 220//654
f 219//655 221//655 136//655
f 217//135 137//135 218//135
f 217//135 219//135 137//135
f 217//182 218//182 231//182
f 230//183 219//183 231//183
f 229//656 218//656 227//656
f 230//657 228//657 219//657
f 227//186 220//186 225//186
f 228//143 226//143 221//143
f 222//187 72//187 225//187
f 224//188 72//188 226//188
f 225//658 224//658 229//658
f 226//659 230//659 224//659
f 232//660 183//660 234//660
f 233//661 235//661 184//661
f 254//662 112//662 232//662
f 255//663 233//663 113//663
f 110//664 112//664 256//664
f 255//665 113//665 257//665
f 181//666 114//666 234//666
f 253//667 115//667 235//667
f 252//668 114//668 250//668
f 253//669 251//669 115//669
f 250//670 116//670 248//670
f 251//671 249//671 117//671
f 248//672 118//672 246//672
f 249//673 247//673 119//673
f 246//674 120//674 244//674
f 247//675 245//675 121//675
f 122//676 124//676 244//676
f 243//677 125//677 245//677
f 124//678 126//678 242//678
f 241//679 127//679 243//679
f 240//680 126//680 236//680
f 241//681 237//681 127//681
f 236//682 179//682 238//682
f 237//683 239//683 180//683
f 238//684 128//684 256//684
f 239//685 257//685 129//685
f 238//686 256//686 276//686
f 259//687 257//687 277//687
f 278//688 236//688 276//688
f 279//689 277//689 237//689
f 240//690 236//690 274//690
f 279//691 237//691 275//691
f 242//692 240//692 272//692
f 275//693 241//693 273//693
f 270//694 244//694 272//694
f 271//695 273//695 245//695
f 246//696 244//696 268//696
f 271//697 245//697 269//697
f 266//698 248//698 268//698
f 267//699 269//699 249//699
f 250//700 248//700 264//700
f 267//701 249//701 265//701
f 252//702 250//702 262//702
f 265//703 251//703 263//703
f 280//237 234//237 262//237
f 281//238 263//238 235//238
f 258//704 256//704 260//704
f 259//705 261//705 257//705
f 260//706 254//706 282//706
f 261//707 283//707 255//707
f 282//708 232//708 280//708
f 283//709 281//709 233//709
f 73//710 67//710 284//710
f 73//711 285//711 67//711
f 284//712 108//712 286//712
f 285//713 287//713 109//713
f 106//714 104//714 286//714
f 289//715 105//715 287//715
f 104//716 102//716 288//716
f 291//717 103//717 289//717
f 102//718 100//718 290//718
f 293//719 101//719 291//719
f 292//720 100//720 294//720
f 293//721 295//721 101//721
f 98//722 96//722 294//722
f 297//723 97//723 295//723
f 296//724 96//724 298//724
f 297//725 299//725 97//725
f 298//726 94//726 300//726
f 299//727 301//727 95//727
f 308//728 309//728 338//728
f 329//729 309//729 339//729
f 307//730 308//730 336//730
f 339//731 308//731 337//731
f 306//732 307//732 340//732
f 337//733 307//733 341//733
f 340//734 89//734 306//734
f 341//735 306//735 90//735
f 334//736 87//736 340//736
f 335//737 341//737 88//737
f 330//738 85//738 334//738
f 331//739 335//739 86//739
f 332//740 83//740 330//740
f 333//741 331//741 84//741
f 332//742 330//742 338//742
f 333//743 339//743 331//743
f 330//744 334//744 336//744
f 341//745 335//745 337//745
f 326//746 332//746 328//746
f 339//747 333//747 329//747
f 326//748 81//748 332//748
f 327//749 333//749 82//749
f 209//750 342//750 215//750
f 345//751 343//751 216//751
f 81//752 326//752 209//752
f 343//753 327//753 210//753
f 79//754 215//754 346//754
f 345//755 216//755 347//755
f 79//756 346//756 92//756
f 301//757 347//757 93//757
f 77//758 324//758 304//758
f 353//759 325//759 304//759
f 304//760 352//760 78//760
f 351//761 353//761 78//761
f 305//762 78//762 348//762
f 305//763 349//763 78//763
f 309//764 305//764 328//764
f 309//765 329//765 305//765
f 326//766 328//766 342//766
f 349//767 329//767 343//767
f 310//768 296//768 318//768
f 311//769 319//769 297//769
f 76//770 316//770 77//770
f 325//771 317//771 77//771
f 302//772 358//772 303//772
f 357//773 359//773 303//773
f 75//774 303//774 354//774
f 75//775 355//775 303//775
f 76//776 75//776 316//776
f 76//777 317//777 75//777
f 364//778 292//778 362//778
f 365//779 363//779 293//779
f 366//780 364//780 368//780
f 367//781 369//781 365//781
f 372//782 366//782 370//782
f 373//783 371//783 367//783
f 374//784 372//784 376//784
f 375//785 377//785 373//785
f 314//786 378//786 376//786
f 375//787 379//787 377//787
f 378//788 316//788 374//788
f 379//789 375//789 317//789
f 374//790 354//790 372//790
f 375//791 373//791 355//791
f 372//792 356//792 366//792
f 373//793 367//793 357//793
f 366//794 358//794 364//794
f 367//795 365//795 359//795
f 290//796 292//796 360//796
f 365//797 293//797 361//797
f 74//798 360//798 302//798
f 359//799 361//799 302//799
f 290//800 284//800 288//800
f 291//801 289//801 285//801
f 74//802 284//802 360//802
f 74//803 361//803 285//803
f 294//804 296//804 362//804
f 311//805 297//805 363//805
f 362//806 310//806 368//806
f 363//807 369//807 311//807
f 368//808 312//808 370//808
f 369//809 371//809 313//809
f 314//810 376//810 382//810
f 371//811 377//811 383//811
f 348//812 350//812 384//812
f 387//813 351//813 385//813
f 318//814 384//814 320//814
f 387//815 385//815 321//815
f 318//816 298//816 384//816
f 319//817 385//817 299//817
f 384//818 300//818 342//818
f 385//819 343//819 301//819
f 314//820 322//820 378//820
f 381//821 323//821 379//821
f 316//822 378//822 324//822
f 381//823 379//823 325//823
f 320//824 386//824 322//824
f 381//825 387//825 323//825
f 350//826 352//826 386//826
f 381//827 353//827 387//827
f 400//828 388//828 402//828
f 415//829 389//829 403//829
f 398//830 400//830 404//830
f 399//831 405//831 401//831
f 398//832 404//832 396//832
f 407//833 405//833 397//833
f 396//834 406//834 394//834
f 409//835 407//835 395//835
f 394//836 408//836 392//836
f 411//837 409//837 393//837
f 390//838 392//838 412//838
f 391//839 413//839 393//839
f 412//840 410//840 418//840
f 413//841 419//841 411//841
f 410//842 408//842 420//842
f 411//843 421//843 409//843
f 406//844 424//844 408//844
f 423//845 425//845 409//845
f 404//846 426//846 406//846
f 425//847 427//847 407//847
f 402//848 428//848 404//848
f 427//849 429//849 405//849
f 428//850 402//850 416//850
f 429//851 417//851 403//851
f 318//852 320//852 442//852
f 445//853 321//853 443//853
f 320//854 390//854 444//854
f 413//855 391//855 445//855
f 312//856 310//856 442//856
f 313//857 443//857 311//857
f 388//858 382//858 414//858
f 389//859 415//859 383//859
f 444//860 412//860 440//860
f 445//861 441//861 413//861
f 438//862 446//862 440//862
f 445//863 447//863 441//863
f 436//135 434//135 438//135
f 437//135 439//135 435//135
f 432//864 448//864 434//864
f 447//865 449//865 435//865
f 430//866 448//866 450//866
f 433//867 449//867 451//867
f 414//868 430//868 416//868
f 451//869 431//869 417//869
f 382//870 312//870 430//870
f 383//871 431//871 313//871
f 312//872 442//872 448//872
f 447//873 443//873 449//873
f 476//874 416//874 452//874
f 477//875 453//875 417//875
f 450//876 432//876 452//876
f 463//877 433//877 453//877
f 462//425 432//425 460//425
f 463//426 461//426 433//426
f 434//878 436//878 460//878
f 459//879 437//879 461//879
f 436//880 438//880 458//880
f 457//881 439//881 459//881
f 456//882 438//882 454//882
f 457//883 455//883 439//883
f 454//884 440//884 474//884
f 455//884 475//884 441//884
f 464//885 428//885 476//885
f 465//886 477//886 429//886
f 466//887 426//887 464//887
f 467//888 465//888 427//888
f 468//889 424//889 466//889
f 469//890 467//890 425//890
f 422//891 424//891 470//891
f 469//892 425//892 471//892
f 420//893 422//893 472//893
f 471//894 423//894 473//894
f 418//895 420//895 474//895
f 473//896 421//896 475//896
f 458//897 456//897 478//897
f 481//898 457//898 479//898
f 478//899 480//899 484//899
f 483//900 481//900 485//900
f 486//901 484//901 488//901
f 487//902 489//902 485//902
f 486//903 488//903 492//903
f 491//904 489//904 493//904
f 492//905 464//905 486//905
f 493//906 487//906 465//906
f 452//907 484//907 476//907
f 487//908 485//908 477//908
f 452//909 462//909 484//909
f 479//910 463//910 485//910
f 460//135 458//135 462//135
f 461//135 463//135 459//135
f 454//911 474//911 456//911
f 481//912 475//912 457//912
f 474//913 472//913 480//913
f 475//914 481//914 473//914
f 470//915 488//915 472//915
f 483//916 489//916 473//916
f 468//917 490//917 470//917
f 489//918 491//918 471//918
f 468//919 466//919 490//919
f 469//920 491//920 467//920
f 502//921 392//921 504//921
f 503//922 505//922 393//922
f 500//923 394//923 502//923
f 501//924 503//924 395//924
f 396//925 394//925 498//925
f 501//926 395//926 499//926
f 398//927 396//927 496//927
f 499//928 397//928 497//928
f 400//929 398//929 494//929
f 497//930 399//930 495//930
f 388//931 400//931 506//931
f 495//932 401//932 507//932
f 494//933 502//933 506//933
f 505//934 503//934 507//934
f 502//935 494//935 500//935
f 503//936 501//936 495//936
f 314//937 382//937 506//937
f 389//938 383//938 507//938
f 322//939 314//939 504//939
f 323//940 505//940 315//940
f 390//941 320//941 504//941
f 391//942 505//942 321//942
