# Blender v2.75 (sub 0) OBJ File: 'cornelBox.blend'
# www.blender.org
mtllib box_top.mtl
o Cube.009_Cube.013
v -7.856662 15.727159 7.856662
v -7.856662 15.727159 -7.856662
v 7.856662 15.727159 7.856662
v 7.856662 15.727159 -7.856662
vt 0.155764 0.000000
vt 0.155764 1.000000
vt 0.822430 1.000000
vt 0.822430 0.000000
vn 0.000000 -1.000000 0.000000
usemtl Material.013
s off
f 1/1/1 2/2/1 4/3/1
f 3/4/1 1/1/1 4/3/1
