# Blender v2.75 (sub 0) OBJ File: 'terrain.blend'
# www.blender.org
mtllib terrain_rock_side.mtl
o Plane.004
v 2.503970 2.654442 261.358704
v 3.313322 11.383510 194.395615
v -64.254997 22.397930 127.377815
v 6.148831 10.500698 227.944122
v -28.385723 20.668751 161.793732
v -18.043545 9.591088 259.017456
v -116.031731 26.645569 124.097267
v 5.435472 12.625238 211.405716
v -47.686859 13.343875 128.621674
v -61.623653 29.623808 144.367447
v 2.173769 8.778487 177.748215
v -82.172699 28.166952 125.805885
v 5.071181 6.418248 244.718552
v -131.089996 10.713951 110.622574
v -11.413004 18.654140 195.141998
v -64.990723 11.859859 111.918648
v -98.690262 21.935362 107.810585
v -30.423979 12.252739 145.291260
v -26.949459 25.509418 178.845383
v -42.901348 28.488262 162.043381
v -13.899784 10.542528 161.621689
v -12.642099 15.327744 178.114914
v -45.378372 23.305012 144.703598
v -82.188263 18.890062 109.674240
v -115.100929 18.380354 108.307930
v -9.635859 21.477724 212.202240
v -8.328848 5.158952 259.538788
v -124.127998 21.089005 125.361412
v 4.295425 12.357519 202.890961
v -55.819691 18.172352 128.108337
v -62.991657 27.185240 135.603622
v 10.801851 9.174086 194.123474
v 5.709573 8.763953 236.139679
v -130.439102 7.843800 103.092575
v -18.788893 22.708748 195.520844
v -98.043266 15.520225 101.212349
v 14.243032 6.651237 227.864334
v -27.411932 24.128191 170.276917
v -21.131428 15.617408 161.698944
v -107.633423 30.070793 123.933075
v 6.173305 11.869515 219.767670
v -39.702679 8.779746 128.940216
v 2.649271 10.175177 186.008926
v -73.102890 25.790039 126.490593
v 4.186829 4.156999 253.553818
v -131.666382 13.287915 118.423576
v -4.103662 14.557794 194.755081
v -64.859711 17.069063 119.562462
v -99.289513 27.946545 115.405624
v -2.102297 16.628654 227.963943
v -29.467030 16.418734 153.479065
v -35.647148 25.059120 161.905182
v -13.183046 13.372317 169.813278
v -12.118787 16.924053 186.569763
v -19.695202 20.964121 178.391983
v -5.376698 11.110236 177.915314
v -46.672695 18.525753 136.590530
v -44.080814 26.600040 153.103027
v -53.181400 27.789774 144.423645
v -37.909119 17.526361 145.069412
v -4.402131 12.704435 243.207413
v 12.828595 8.862761 211.014984
v -81.938026 12.647886 102.680344
v -82.341225 24.892590 117.247581
v -90.561760 21.127682 108.515427
v -73.533035 15.571163 110.929550
v -114.232857 13.481714 101.409576
v -115.764023 22.945900 115.664963
v -123.198593 14.668291 109.400124
v -106.880173 20.985447 107.735741
v -48.251125 8.851396 120.699867
v -10.504409 20.361679 203.729095
v -9.543835 21.380934 220.306702
v -1.992168 17.562548 211.881561
v -22.077892 11.596470 153.508179
v -1.492255 17.580313 220.174271
v -56.468159 12.901110 120.278183
v -107.564499 26.461088 115.065132
v -123.819847 18.196550 117.006165
v -122.463692 10.828740 102.173546
v -73.511459 21.171293 118.498642
v -90.958061 27.329582 116.169716
v -90.145775 14.628018 101.805237
v 13.758691 7.773256 219.392715
v 11.693027 9.359233 202.545441
v -6.148335 8.957516 251.369751
v -36.791718 21.569473 153.333252
v -51.849792 29.564945 153.097580
v -54.619419 23.688597 136.100983
v -4.850811 12.757862 186.265610
v -19.304831 21.916210 186.935043
v -20.252712 19.059334 169.980225
v -5.884842 9.232250 169.693344
v -34.790859 27.261156 170.776550
v -38.933083 13.014112 136.969803
v -3.164316 15.096003 235.459717
v -106.010063 15.145510 101.058754
v -3.082247 16.358818 203.330399
v -71.853210 28.964333 135.234497
v -2.853468 3.414952 260.422516
v -128.049805 18.134005 126.059830
v 3.763628 11.924511 198.631622
v -59.988682 20.381224 127.771713
v -63.692871 24.978239 131.416092
v 7.062184 10.208674 194.246109
v 5.958158 9.679077 232.023895
v -97.784119 12.607786 98.023376
v 10.202188 8.145694 227.906372
v -27.850014 22.628834 166.014877
v -24.752251 18.208683 161.744873
v -111.837898 28.673931 123.845551
v 5.901127 12.362396 215.616669
v -43.681896 10.970227 128.802597
v 2.400337 9.511831 181.861801
v -77.640640 27.103222 126.105499
v 4.688141 5.192370 249.191971
v -131.407608 12.068569 114.472725
v -7.764210 16.536331 194.948822
v -64.966858 14.439846 115.729118
v -99.033600 25.189466 111.411377
v -6.441258 18.940729 227.834900
v -29.963890 14.311889 149.373138
v -26.858248 25.664705 183.138931
v -39.264736 26.949850 161.969208
v -10.233486 8.469055 161.587189
v -13.520195 12.059285 165.706650
v -12.395030 16.119644 182.321991
v -23.274925 23.542526 178.588867
v -9.048450 12.970948 178.011047
v -42.518894 28.936260 166.700912
v -47.232887 15.904190 132.594971
v -44.718788 25.168621 148.851883
v -57.329189 28.974730 144.383286
v -41.633762 20.418116 144.897430
v -9.431125 15.555052 242.335327
v 9.804750 5.018382 245.398605
v 9.125575 10.497607 211.187958
v -82.279930 22.057526 113.360733
v -94.631828 21.722116 108.094627
v -77.871109 17.321199 110.318207
v -113.793777 11.143500 98.010521
v -115.476059 20.755686 111.895081
v -127.169037 12.659797 110.020348
v -110.994415 19.851562 107.946808
v -60.811611 10.049009 112.254173
v -10.975856 19.548338 199.442078
v -9.419566 21.609728 216.328964
v -5.782012 19.756510 212.069641
v -26.656874 9.976455 145.342575
v -13.421132 7.489675 259.119263
v -120.135757 24.026609 124.660835
v 4.869822 12.604341 207.155289
v -51.725883 15.796318 128.390564
v -62.283943 28.705774 139.946396
v 5.407391 7.680501 240.344559
v -130.755585 9.284433 106.838554
v -15.073905 20.770136 195.332413
v -98.351257 18.645672 104.457352
v -30.843964 10.269597 141.227600
v -27.119892 25.041262 174.558960
v -46.624306 29.537184 162.142426
v -17.521713 12.993993 161.658020
v 6.243402 11.221832 223.865829
v 2.949331 10.800048 190.189072
v -68.627007 24.205315 126.937401
v 3.489355 3.325473 257.613800
v -131.847778 14.373681 122.492119
v -0.412411 12.821822 194.568359
v -64.635872 19.726690 123.439369
v -99.357597 29.736311 119.829567
v 2.070030 13.582523 227.985535
v -28.937254 18.548050 157.617462
v -32.021873 22.947376 161.847809
v -12.895897 14.441839 173.948380
v -11.794442 17.767273 190.847092
v -16.172899 18.091532 178.238998
v -1.627167 9.756435 177.826492
v -30.706705 26.801907 179.177048
v -46.043102 21.034206 140.623947
v -43.461502 27.697695 157.493408
v -49.205677 25.866283 144.531693
v -34.175625 14.779222 145.202026
v 0.340323 9.119785 243.981720
v -82.070953 15.701639 106.139153
v -82.348785 26.933241 121.367744
v -86.424507 20.176872 109.055275
v -69.229057 13.722665 111.473068
v -114.674339 15.921327 104.828819
v -115.953072 24.921501 119.695747
v -119.173973 16.616938 108.810364
v -102.773438 21.697172 107.690109
v -48.022579 10.977729 124.658432
v -10.035562 21.037529 207.990250
v 1.738194 15.083392 211.648895
v -14.290890 8.946229 157.548981
v -22.502337 9.695569 149.432648
v -21.615217 13.598702 157.595169
v -25.774347 13.965679 153.504105
v -18.377737 9.376797 153.499466
v -1.607674 17.743139 216.082932
v -1.674775 17.193016 224.137222
v -5.471417 19.855738 220.275970
v 2.365385 14.734779 219.986221
v -18.455988 23.079693 199.786438
v -14.275585 22.004995 203.884293
v -56.611965 10.522692 116.385429
v -56.213303 15.454314 124.182991
v -60.636105 14.993138 119.963097
v -52.342049 10.833560 120.518181
v -107.284363 23.889555 111.273132
v -107.666588 28.486464 119.253868
v -111.671181 24.897474 115.236610
v -103.436279 27.499241 115.148346
v -123.538437 16.509047 113.128716
v -124.024330 19.719833 121.070023
v -127.762299 15.676428 117.740555
v -119.819534 20.672871 116.288361
v -122.110809 8.971022 98.600029
v -122.832664 12.751807 105.761086
v -126.486244 9.330935 102.632797
v -118.369453 12.242211 101.754578
v -73.546608 18.445066 114.675201
v -73.390038 23.633049 122.420494
v -77.923538 23.129990 117.875053
v -69.150658 19.130367 119.071342
v -90.780724 24.445353 112.161087
v -91.030312 29.051153 120.562080
v -95.136169 27.863791 115.756996
v -86.699776 26.321918 116.667503
v -90.344627 17.799316 105.103172
v -94.111641 15.221102 101.464745
v -86.095123 13.758696 102.222198
v 13.353044 8.353899 215.219147
v 14.042736 7.176884 223.576523
v 9.960788 9.484674 219.563644
v 11.203067 9.343211 198.320496
v 12.249867 9.202864 206.783081
v 7.995556 10.715525 202.701248
v 9.115845 3.510791 254.367996
v 10.114481 6.709280 236.455200
v 10.483193 8.881846 189.957367
v 6.444881 9.290757 185.905151
v -5.199682 10.972237 247.248535
v -7.213881 6.944923 255.492493
v -11.166615 12.104744 250.722260
v -0.955211 5.799988 252.434235
v -37.356609 19.625301 149.172562
v -36.215969 23.383112 157.573318
v -40.420738 24.185011 153.217850
v -33.144478 18.951345 153.423553
v -52.505409 28.912779 148.714706
v -47.868446 28.456940 153.051208
v -55.281403 20.976286 132.072937
v -53.897938 26.024645 140.217194
v -58.746250 25.659094 135.852066
v -50.603519 21.260826 136.351273
v -5.131245 11.925137 182.071945
v -4.510174 13.644241 190.496048
v -8.508586 14.669071 186.413452
v -1.128190 11.274026 186.130219
v -19.500170 21.495096 182.648849
v -19.073864 22.307850 191.232513
v -22.994188 24.057684 187.161804
v -15.700240 19.425014 186.740891
v -20.661461 17.500614 165.824768
v -19.937418 20.177872 174.170319
v -23.808949 21.785868 170.108017
v -16.728205 16.133972 169.885895
v -6.185014 8.085692 165.615677
v -5.618239 10.240800 173.791611
v -9.572845 11.044552 169.751938
v -2.125749 7.923168 169.638184
v -35.144344 26.426601 166.323425
v -34.599197 27.618811 175.200226
v -38.548466 28.291798 171.072128
v -31.073914 25.935289 170.501877
v -39.359257 10.805852 132.950333
v -38.441196 15.293882 141.006149
v -42.791344 15.716985 136.800323
v -35.077442 10.550063 137.094757
v -2.624937 15.933574 231.708435
v -3.740049 14.047244 239.280212
v -7.932178 17.555037 234.898102
v 1.319107 11.853239 235.854507
v -73.478401 12.687562 107.249390
v -77.683777 11.342143 103.152565
v -105.614166 12.427259 97.814339
v -106.440613 18.017214 104.355591
v -110.100037 14.458393 101.178085
v -101.993980 15.501634 101.070457
v -3.624249 15.485334 199.036606
v -2.518050 17.069937 207.618271
v -6.779542 18.431528 203.541824
v 0.604225 14.279716 203.106232
v -72.581688 27.619930 130.764069
v -67.362167 28.252937 135.380585
v -77.146164 28.458641 130.590851
v 1.182814 14.791414 207.386078
v -6.252461 19.215799 207.825058
v -7.296056 17.514647 199.244919
v -102.371880 18.528046 104.331978
v -110.549789 17.134277 104.524139
v -109.662781 11.914545 97.860954
v -69.188225 11.022112 107.730911
v -77.792740 14.274745 106.707008
v 0.868129 10.641020 239.869232
v -8.680614 16.681782 238.510208
v -7.183463 18.293581 231.381042
v -34.648151 12.645082 141.138367
v -42.232117 18.137020 140.831100
v -43.284073 13.278140 132.794846
v -30.828432 26.565145 174.850067
v -38.820320 27.835512 166.514038
v -1.862728 8.910371 173.721909
v -9.298757 12.075197 173.866074
v -9.887564 9.823522 165.661118
v -16.426868 17.232037 174.046371
v -23.484970 22.907301 174.334274
v -24.241968 20.194298 165.908478
v -15.414227 20.082047 191.033661
v -22.819666 24.205750 191.451553
v -23.129292 23.880281 182.866791
v -0.802606 12.050698 190.335678
v -8.172058 15.568149 190.666641
v -8.796313 13.804686 182.192062
v -49.915916 23.752445 140.409531
v -58.019192 27.680237 140.063644
v -59.431618 23.134241 131.760880
v -47.223972 29.126959 157.517929
v -56.667728 29.715302 148.761627
v -32.589554 20.976063 157.606079
v -39.821823 25.707153 157.523804
v -41.025227 22.445726 149.017090
v -1.785235 4.478525 256.510742
v -12.261652 9.808969 254.984070
v -10.233111 14.052095 246.446854
v 6.719278 9.789820 190.059509
v 6.210391 8.698462 181.779938
v 9.984948 5.874368 240.841675
v 10.186996 7.428450 232.155624
v 9.534920 4.204683 249.976425
v 8.558513 10.717239 206.948624
v 7.485908 10.534080 198.460297
v 10.148565 8.804445 223.713287
v 9.621493 10.058438 215.396179
v -86.259117 16.892462 105.590332
v -94.356499 18.394588 104.714874
v -93.910744 12.276459 98.253967
v -86.753204 28.159895 120.933464
v -95.212990 29.600220 120.202362
v -94.914009 25.035992 111.720352
v -68.970886 21.723696 122.957695
v -77.868736 25.402056 121.872070
v -77.915199 20.349335 114.032181
v -118.778130 14.429183 105.254547
v -126.824448 11.000184 106.303375
v -126.176834 7.716406 98.975525
v -120.029579 22.448544 120.327095
v -127.956764 16.962875 121.812431
v -127.495804 14.243902 113.815422
v -103.506966 29.393129 119.476952
v -111.818779 26.970421 119.306099
v -111.388885 22.497507 111.487686
v -52.096592 13.205157 124.450111
v -60.388336 17.640247 123.848259
v -60.767757 12.457514 116.104149
v -43.981438 8.869826 124.817993
v -13.873910 22.447924 208.113266
v 2.321419 14.221907 224.025681
v -5.805841 19.509907 224.153519
v -5.468875 20.000908 216.242096
v -17.959990 11.166129 157.573563
v -25.275003 16.087580 157.611374
v -26.237318 11.912119 149.416061
v 2.175074 15.071803 215.862488
v -14.686282 21.440432 199.622025
v -103.163956 24.825666 111.251259
v -119.532166 18.730803 112.461899
v -117.967804 10.140896 98.265579
v -69.223953 16.450584 115.250092
v -86.579704 23.454491 112.714874
v -0.266380 7.402654 248.210190
v -33.673603 16.886339 149.293655
v -48.519073 27.433941 148.734222
v -51.223221 18.534975 132.351700
v -1.394510 10.518013 181.960098
v -15.944468 18.779024 182.470581
v -17.098251 14.701693 165.758682
v -31.485409 24.709074 166.152786
v -35.444954 8.589971 133.063675
v 1.718143 12.802712 231.905106
v -101.662216 12.662476 97.868690
v 0.057883 13.587929 198.827133
v -68.076828 26.473545 131.063568
vt 0.150723 -2.877562
vt 0.262042 -2.886513
vt 0.247768 -2.783972
vt 1.974926 -4.593279
vt 1.963492 -4.485717
vt 1.868887 -4.490103
vt 1.922987 -5.438174
vt 2.030650 -5.441190
vt 2.035492 -5.337595
vt 1.172179 -3.765061
vt 1.158576 -3.657876
vt 1.066246 -3.659248
vt 1.536048 -3.757234
vt 1.526409 -3.653507
vt 1.434440 -3.654429
vt 1.564619 -4.179138
vt 1.558345 -4.072310
vt 1.468689 -4.075460
vt 1.940309 -4.167452
vt 1.934556 -4.062999
vt 1.838041 -4.064986
vt 0.680001 -2.916448
vt 0.668473 -2.815556
vt 0.565913 -2.809688
vt 0.743840 -3.329250
vt 0.727091 -3.223916
vt 0.629907 -3.219550
vt 1.118503 -3.342486
vt 1.106820 -3.238838
vt 1.011557 -3.236572
vt 1.872594 -5.852199
vt 1.998402 -5.877129
vt 2.008128 -5.763538
vt -0.209928 -2.428044
vt -0.207601 -2.334435
vt -0.315170 -2.318718
vt 0.229692 -2.488183
vt 0.229086 -2.391426
vt 0.121465 -2.380112
vt -1.155853 -2.405221
vt -1.052859 -2.390828
vt -1.043333 -2.299742
vt -0.635345 -2.378546
vt -0.626626 -2.287113
vt -0.730309 -2.284053
vt 1.600655 -4.613858
vt 1.589554 -4.504669
vt 1.496596 -4.509504
vt 1.934589 -5.030812
vt 2.029203 -5.024570
vt 2.017379 -4.917645
vt 1.330496 -3.551264
vt 1.318747 -3.447485
vt 1.224885 -3.447381
vt 1.740491 -5.040452
vt 1.838536 -5.036410
vt 1.828773 -4.929728
vt 1.836832 -5.240928
vt 1.841466 -5.140299
vt 1.740426 -5.142881
vt 1.938305 -5.238096
vt 2.037894 -5.234036
vt 2.036114 -5.129974
vt 1.527066 -4.834041
vt 1.624531 -4.830917
vt 1.612626 -4.722716
vt 0.451966 -2.702848
vt 0.445495 -2.603695
vt 0.339661 -2.595694
vt 0.659949 -2.714920
vt 0.654146 -2.614403
vt 0.550267 -2.609789
vt -0.949076 -2.380483
vt -0.844852 -2.375035
vt -0.834588 -2.285212
vt -0.959991 -2.579011
vt -0.854557 -2.577685
vt -0.851965 -2.471323
vt -0.748934 -2.583350
vt -0.643572 -2.592304
vt -0.641843 -2.479969
vt -1.257582 -2.422153
vt -1.248953 -2.327475
vt -1.349772 -2.343224
vt -1.269920 -2.623802
vt -1.264728 -2.520611
vt -1.364836 -2.539259
vt -1.168483 -2.604937
vt -1.064971 -2.588906
vt -1.060171 -2.486554
vt -1.239661 -2.235070
vt -1.230291 -2.143974
vt -1.332434 -2.155636
vt -1.136706 -2.222208
vt -1.032501 -2.211398
vt -1.021291 -2.124575
vt 0.011832 -2.461422
vt 0.012176 -2.366310
vt -0.097978 -2.350787
vt 0.015808 -2.658094
vt 0.012724 -2.558509
vt -0.099310 -2.542674
vt 0.238097 -2.683965
vt 0.232413 -2.585521
vt 0.123456 -2.573050
vt -0.425784 -2.397582
vt -0.420224 -2.305010
vt -0.523573 -2.294325
vt -0.538330 -2.601769
vt -0.432122 -2.610904
vt -0.430287 -2.499371
vt -0.211677 -2.631361
vt -0.211485 -2.526740
vt -0.322159 -2.512011
vt -0.414711 -2.218365
vt -0.409661 -2.134622
vt -0.510365 -2.125976
vt -0.204622 -2.244671
vt -0.201247 -2.156843
vt -0.306805 -2.145210
vt 2.123672 -5.018972
vt 2.218425 -5.014476
vt 2.205108 -4.907722
vt 2.137055 -5.230164
vt 2.235938 -5.226690
vt 2.228725 -5.120453
vt 2.069444 -4.588929
vt 2.163831 -4.585379
vt 2.153644 -4.478806
vt 2.096680 -4.804468
vt 2.190413 -4.800264
vt 2.176273 -4.692660
vt 1.619515 -5.807424
vt 1.747326 -5.827780
vt 1.767578 -5.725167
vt 1.568005 -6.024204
vt 1.696181 -6.037114
vt 1.723238 -5.932428
vt 1.834027 -6.062971
vt 1.967961 -6.090980
vt 1.985672 -5.987887
vt 0.930784 -3.337394
vt 0.916754 -3.233205
vt 0.822176 -3.228837
vt 0.959747 -3.550709
vt 0.945128 -3.443044
vt 0.852978 -3.440113
vt 1.144571 -3.551830
vt 1.131119 -3.446746
vt 1.037740 -3.445336
vt 0.440427 -3.326959
vt 0.546119 -3.325768
vt 0.528954 -3.216807
vt 0.680228 -3.549303
vt 0.775766 -3.548680
vt 0.760040 -3.437198
vt 0.475630 -2.903193
vt 0.461961 -2.802521
vt 0.356101 -2.793974
vt 0.510759 -3.109995
vt 0.492439 -3.005474
vt 0.387649 -2.999154
vt 0.710213 -3.120323
vt 0.694226 -3.017905
vt 0.594413 -3.011830
vt 1.749064 -4.172789
vt 1.742831 -4.067242
vt 1.649597 -4.069673
vt 1.764834 -4.386697
vt 1.756185 -4.279276
vt 1.663305 -4.283030
vt 1.954249 -4.378902
vt 1.946630 -4.272758
vt 1.850711 -4.275838
vt 1.384202 -4.187438
vt 1.379250 -4.079346
vt 1.288352 -4.084345
vt 1.395027 -4.405397
vt 1.389162 -4.296274
vt 1.295480 -4.302032
vt 1.579869 -4.395610
vt 1.571633 -4.286999
vt 1.480691 -4.291344
vt 1.354714 -3.760233
vt 1.342780 -3.655468
vt 1.250839 -3.656635
vt 1.373099 -3.972147
vt 1.365093 -3.865751
vt 1.274791 -3.868996
vt 1.551901 -3.966512
vt 1.544609 -3.861511
vt 1.454589 -3.863355
vt 1.736698 -3.962531
vt 1.729928 -3.858466
vt 1.636281 -3.859954
vt 0.986958 -3.772895
vt 0.974191 -3.660706
vt 0.882332 -3.662332
vt 1.190718 -3.982016
vt 1.183303 -3.873284
vt 1.090317 -3.878997
vt 0.879931 -2.925472
vt 0.871212 -2.823645
vt 0.770169 -2.820151
vt 0.903243 -3.130028
vt 0.890753 -3.027536
vt 0.792782 -3.023232
vt 1.812705 -5.433179
vt 1.825976 -5.338098
vt 1.715799 -5.334821
vt 1.658937 -5.605893
vt 1.784390 -5.625446
vt 1.799009 -5.528434
vt 1.901402 -5.640402
vt 2.016665 -5.652472
vt 2.024338 -5.545700
vt -0.823427 -2.199382
vt -0.812494 -2.115667
vt -0.916349 -2.118697
vt -0.618018 -2.201966
vt -0.610198 -2.119567
vt -0.710516 -2.115965
vt 1.787330 -4.603562
vt 1.775157 -4.494844
vt 1.682207 -4.499764
vt 1.815420 -4.821472
vt 1.801093 -4.712592
vt 1.707210 -4.717961
vt 1.909393 -4.815576
vt 2.003016 -4.809715
vt 1.988429 -4.701434
vt -0.079570 -2.865559
vt 0.036334 -2.869957
vt 0.023099 -2.761443
vt 1.894702 -4.706901
vt 1.923496 -4.923820
vt 1.720594 -4.826723
vt 1.634681 -4.937870
vt 1.732539 -4.934503
vt 1.694094 -4.608852
vt -0.720112 -2.198782
vt -0.927769 -2.203661
vt -0.939059 -2.290572
vt -0.905245 -2.034467
vt -1.010141 -2.038265
vt -0.802441 -2.033284
vt 0.122501 -2.285089
vt 0.013564 -2.272862
vt -0.095988 -2.259090
vt -0.093221 -2.168834
vt 1.912854 -5.538458
vt 1.888001 -5.744828
vt 1.639879 -5.703022
vt 1.677942 -5.514173
vt 0.999558 -3.133386
vt 0.988658 -3.030709
vt 1.096155 -3.135651
vt 0.806982 -3.125583
vt 0.780271 -2.921523
vt 1.096550 -3.989408
vt 0.995934 -3.885971
vt 1.195047 -4.090858
vt 0.799701 -3.782481
vt 0.893617 -3.777736
vt 1.832060 -3.960761
vt 1.825381 -3.857065
vt 1.643240 -3.964422
vt 1.628289 -3.756078
vt 1.619505 -3.652631
vt 1.722306 -3.754924
vt 1.462240 -3.969000
vt 1.283018 -3.976310
vt 1.263796 -3.762359
vt 1.487954 -4.400348
vt 1.292050 -4.192972
vt 1.858978 -4.382625
vt 1.671850 -4.391029
vt 1.655999 -4.175838
vt 0.611873 -3.114879
vt 0.297818 -3.103119
vt 0.406111 -3.106096
vt 0.314585 -3.215380
vt 0.423631 -3.215782
vt 0.370246 -2.895269
vt 0.279848 -2.992845
vt 0.695454 -3.666730
vt 0.789990 -3.664215
vt 1.051831 -3.551541
vt 0.868185 -3.549452
vt 0.837628 -3.333446
vt 1.855103 -5.959457
vt 1.667869 6.983497
vt 1.806902 6.961056
vt 1.834027 7.060386
vt 1.942941 6.937284
vt 1.967961 7.032377
vt 1.538563 6.994149
vt 1.696181 7.086241
vt 1.595811 -5.915987
vt 2.049977 -4.375612
vt 2.043010 -4.270123
vt 2.058685 -4.481920
vt 2.145552 -4.373018
vt 2.037056 -4.165374
vt 2.132901 -5.665095
vt 2.136190 -5.553711
vt 2.128325 -5.780806
vt 2.138031 -5.444535
vt 2.138417 -5.336636
vt 2.121473 -5.897048
vt 2.110832 -6.008561
vt 2.082385 -4.696617
vt 2.111079 -4.912115
vt 2.132287 -5.124794
vt 2.241024 -5.335568
vt -0.310970 -2.230735
vt -0.516581 -2.208505
vt -0.505263 -2.044447
vt -0.603617 -2.038591
vt -0.323516 -2.620334
vt -0.536379 -2.488891
vt -0.530738 -2.386391
vt 0.128021 -2.671735
vt 0.136752 -2.772789
vt -0.097918 -2.644168
vt -0.207205 -2.744057
vt -0.092125 -2.751665
vt -0.099097 -2.445094
vt -1.126329 -2.133336
vt -1.146758 -2.312500
vt -1.341022 -2.248841
vt -1.432807 -2.167311
vt -1.440843 -2.262430
vt -1.221331 -2.053234
vt -1.324577 -2.062769
vt -1.163150 -2.502384
vt -1.272552 -2.732771
vt -1.171179 -2.714981
vt -1.066968 -2.700671
vt -1.369774 -2.642653
vt -1.463970 -2.556602
vt -1.372136 -2.750505
vt -1.358069 -2.439590
vt -1.449335 -2.358516
vt -1.457399 -2.456280
vt -0.747140 -2.473436
vt -0.956244 -2.475677
vt -0.960477 -2.694279
vt -0.853715 -2.696502
vt 0.556500 -2.709630
vt 0.345952 -2.694348
vt 0.336318 -2.497706
vt 0.335204 -2.399946
vt 0.441843 -2.504849
vt 0.762563 -2.718972
vt 1.939422 -5.135524
vt 1.931922 -5.338646
vt 1.731934 -5.241342
vt 1.640173 -5.042657
vt 1.423311 -3.550715
vt 1.412703 -3.447264
vt 1.516478 -3.550091
vt 1.237565 -3.551675
vt 1.213129 -3.343576
vt 1.202476 -3.240141
vt 1.307970 -3.343998
vt 1.506438 -4.618427
vt 1.402263 -4.514289
vt -0.740224 -2.374480
vt -1.116130 -2.044742
vt 0.121595 -2.476019
vt -0.319110 -2.411644
vt 1.024304 -3.340468
vt 0.647341 -3.326263
vt 0.562767 -3.437059
vt 0.663862 -3.435882
vt 0.578677 -2.910271
vt 1.843949 -4.169949
vt 1.474490 -4.182911
vt 1.445193 -3.758555
vt 1.079868 -3.768563
vt 0.979325 -2.928350
vt -0.702092 -2.034663
vt 1.880828 -4.598243
vt 0.054831 -2.983472
vt 0.168870 -2.987182
vt 1.516867 -4.726657
vt 1.299912 -4.410960
vt 1.696953 -5.424866
vt 1.000801 -3.998299
vt 1.099641 -4.099280
vt 0.900520 -3.893476
vt 1.197363 -4.199882
vt 1.568005 7.099151
vt -1.468576 -2.659912
vt 1.637017 -5.143662
vt 1.410716 -4.622602
vn 0.310000 0.781000 -0.542200
vn 0.349500 0.924000 -0.155200
vn 0.579300 0.793400 0.186900
vn 0.477600 0.772100 -0.419200
vn 0.525100 0.780800 -0.338700
vn 0.602200 0.777400 -0.181700
vn 0.241400 0.953000 -0.183200
vn 0.465900 0.718600 -0.516300
vn 0.518200 0.746300 -0.417700
vn 0.510700 0.743100 -0.432400
vn 0.345600 0.897100 0.275400
vn 0.310100 0.724900 -0.615100
vn 0.389200 0.761600 -0.518100
vn -0.437300 0.728100 -0.527900
vn -0.023400 0.740600 -0.671500
vn 0.478800 0.848600 -0.225100
vn 0.587400 0.809100 -0.014500
vn 0.488000 0.760700 -0.427900
vn 0.500500 0.861800 -0.082800
vn 0.495600 0.861900 0.107100
vn 0.606500 0.786800 0.114000
vn 0.333900 0.924600 -0.183400
vn 0.414900 0.748900 -0.516700
vn 0.405400 0.795400 -0.450600
vn -0.279200 0.726300 -0.628200
vn -0.316000 0.851100 -0.419200
vn -0.044700 0.925800 -0.375300
vn -0.460500 0.778600 -0.426300
vn -0.552000 0.771300 -0.316900
vn -0.520400 0.756900 -0.395400
vn -0.354600 0.808400 -0.469800
vn -0.331500 0.747300 -0.576000
vn 0.376200 0.735800 -0.563200
vn 0.410200 0.766700 -0.493900
vn 0.415600 0.738800 -0.530500
vn 0.175000 0.733400 -0.656900
vn 0.151700 0.921100 -0.358500
vn 0.332800 0.845300 -0.418000
vn 0.165300 0.715900 -0.678400
vn 0.264200 0.728000 -0.632600
vn 0.417100 0.907000 0.057800
vn 0.386600 0.916300 0.104400
vn 0.302100 0.950900 -0.067200
vn 0.378900 0.925300 -0.015600
vn 0.421800 0.800300 0.426300
vn 0.394600 0.781400 0.483400
vn 0.163000 0.960700 0.224800
vn 0.564700 0.701500 -0.434900
vn 0.546300 0.740700 -0.391000
vn 0.512800 0.734900 -0.443800
vn 0.179000 0.944500 -0.275400
vn 0.340100 0.899900 -0.273000
vn 0.422500 0.712000 -0.560900
vn 0.396600 0.766800 -0.504700
vn 0.512000 0.691300 -0.509800
vn 0.439000 0.876500 -0.197800
vn 0.445000 0.868600 -0.217800
vn 0.270900 0.949000 -0.161300
vn 0.575100 0.808100 -0.127200
vn 0.494400 0.862900 -0.105200
vn 0.554300 0.807600 -0.201200
vn 0.529700 0.747200 -0.401400
vn 0.583400 0.772700 -0.250200
vn 0.593500 0.768200 -0.239900
vn 0.424800 0.872300 -0.242300
vn 0.435900 0.844600 -0.311000
vn 0.421300 0.880700 -0.216500
vn 0.446000 0.782900 -0.433800
vn 0.521000 0.714400 -0.467000
vn 0.453200 0.863000 0.223400
vn 0.412500 0.860700 0.298400
vn 0.510700 0.823000 0.248800
vn -0.143100 0.737000 -0.660600
vn 0.021500 0.721100 -0.692500
vn 0.452200 0.859900 -0.236900
vn 0.469800 0.858800 -0.204200
vn 0.501200 0.857300 -0.117100
vn 0.180000 0.896100 -0.405700
vn 0.476500 0.863000 -0.167600
vn 0.543400 0.829700 -0.127600
vn 0.548500 0.832600 -0.077100
vn 0.440900 0.871700 -0.213900
vn 0.398000 0.903500 -0.159200
vn 0.485200 0.859800 -0.159200
vn 0.477100 0.844200 -0.244200
vn 0.460000 0.855500 -0.237800
vn 0.460300 0.856800 -0.232400
vn -0.062600 0.728000 -0.682700
vn -0.131200 0.713100 -0.688700
vn 0.001000 0.713900 -0.700300
vn -0.262500 0.736100 -0.623900
vn -0.313300 0.723500 -0.615100
vn -0.231100 0.716000 -0.658800
vn -0.166300 0.771800 -0.613800
vn -0.103200 0.756200 -0.646200
vn 0.356000 0.759600 -0.544300
vn 0.294500 0.741600 -0.602800
vn 0.322900 0.726800 -0.606200
vn 0.345100 0.741300 -0.575700
vn 0.542500 0.785400 0.298100
vn 0.526600 0.773100 0.353600
vn 0.442800 0.851800 0.279900
vn 0.413300 0.838000 0.356200
vn 0.419400 0.871300 0.254800
vn 0.493400 0.749800 -0.440800
vn 0.523600 0.727700 -0.443100
vn 0.487000 0.764000 -0.423200
vn 0.528400 0.693600 -0.489700
vn 0.550600 0.690800 -0.468600
vn 0.547100 0.701300 -0.457000
vn 0.463800 0.746200 -0.477600
vn 0.498500 0.711900 -0.494800
vn 0.486300 0.743100 -0.459800
vn 0.321900 0.934200 -0.153500
vn 0.369800 0.921900 -0.115400
vn 0.269200 0.940000 -0.209500
vn 0.341700 0.918400 -0.199200
vn 0.315900 0.917400 -0.242100
vn 0.323100 0.923000 -0.208800
vn 0.523200 0.817800 -0.239700
vn 0.534100 0.819100 -0.209300
vn 0.432700 0.876700 -0.210200
vn 0.465000 0.827500 -0.314600
vn 0.500200 0.818400 -0.282800
vn 0.405700 0.871600 -0.275000
vn 0.615800 0.749700 -0.242500
vn 0.626700 0.755000 -0.192700
vn 0.603900 0.771300 -0.200800
vn 0.518400 0.815900 -0.256200
vn 0.493400 0.856400 -0.152200
vn 0.594600 0.783600 -0.180100
vn 0.504600 0.753600 -0.421200
vn 0.517000 0.781400 -0.349500
vn 0.560600 0.755700 -0.338600
vn 0.555100 0.815900 -0.161900
vn 0.504600 0.845400 -0.175300
vn 0.518000 0.827500 -0.216900
vn 0.465600 0.880900 -0.085400
vn 0.541600 0.833800 -0.106600
vn 0.356900 0.913300 -0.196300
vn 0.379600 0.903400 -0.199600
vn 0.306800 0.938800 -0.156800
vn 0.510500 0.832200 -0.216300
vn 0.495600 0.835800 -0.236200
vn 0.444500 0.866200 -0.228200
vn 0.533800 0.822500 -0.196200
vn 0.524300 0.826500 -0.205000
vn 0.441500 0.874000 -0.203100
vn 0.465700 0.716800 -0.519000
vn 0.455100 0.758100 -0.467100
vn 0.522100 0.706200 -0.478200
vn 0.220200 0.864100 -0.452700
vn 0.143400 0.941500 -0.305000
vn 0.254200 0.875600 -0.410700
vn 0.396100 0.728900 -0.558400
vn 0.313200 0.783800 -0.536200
vn 0.416500 0.720900 -0.553900
vn 0.261100 0.945100 -0.196400
vn 0.534900 0.730500 -0.424600
vn 0.504900 0.755000 -0.418400
vn 0.497000 0.745500 -0.444200
vn 0.523900 0.777500 -0.347700
vn 0.367500 0.882700 -0.292800
vn 0.507300 0.779200 -0.368100
vn 0.565100 0.704100 -0.430000
vn 0.558800 0.734700 -0.384600
vn 0.566600 0.714300 -0.410700
vn 0.331800 0.875500 0.351400
vn 0.241400 0.917700 0.315400
vn 0.165200 0.962300 0.215900
vn 0.338900 0.822600 0.456500
vn 0.422900 0.771900 0.474700
vn 0.252300 0.958600 -0.131800
vn 0.292600 0.948800 -0.118900
vn 0.262900 0.960800 -0.087500
vn 0.220400 0.963700 -0.150900
vn 0.343200 0.920800 0.185400
vn 0.253600 0.948800 0.188300
vn 0.460900 0.874800 0.149300
vn 0.408200 0.899200 0.157300
vn 0.168000 0.968800 0.182100
vn 0.101400 0.981100 0.164700
vn 0.451900 0.890000 -0.060300
vn 0.498400 0.866700 -0.021800
vn 0.404500 0.914300 0.018200
vn 0.343600 0.933000 -0.106600
vn 0.400300 0.912200 -0.087100
vn 0.342500 0.938500 -0.043300
vn 0.526100 0.842700 0.114300
vn 0.499100 0.857000 0.128300
vn 0.346100 0.933000 0.098200
vn 0.527400 0.849200 0.026500
vn 0.534200 0.842200 0.072500
vn 0.412500 0.906900 0.086100
vn 0.222100 0.719200 -0.658300
vn 0.236700 0.710700 -0.662400
vn 0.287000 0.716100 -0.636300
vn 0.098800 0.715700 -0.691400
vn 0.089600 0.713400 -0.695000
vn 0.171500 0.710700 -0.682300
vn 0.102800 0.736300 -0.668800
vn 0.254800 0.889200 -0.379900
vn 0.063100 0.930000 -0.362200
vn 0.085600 0.738700 -0.668500
vn 0.064600 0.819000 -0.570200
vn 0.175500 0.802800 -0.569800
vn 0.417500 0.746800 -0.517700
vn 0.392600 0.764800 -0.510800
vn 0.400800 0.739700 -0.540500
vn 0.384600 0.800200 -0.460100
vn 0.235300 0.897400 -0.373300
vn 0.282300 0.839300 -0.464700
vn 0.352200 0.727400 -0.588900
vn 0.377200 0.750700 -0.542400
vn 0.402700 0.743500 -0.533900
vn -0.324900 0.784500 -0.528200
vn -0.434700 0.744600 -0.506500
vn -0.385800 0.730500 -0.563600
vn -0.362400 0.835400 -0.413300
vn -0.411600 0.817400 -0.403100
vn -0.408700 0.789900 -0.457100
vn -0.300100 0.833900 -0.463200
vn -0.571400 0.739900 -0.355000
vn -0.599900 0.746900 -0.286700
vn -0.540900 0.779800 -0.315100
vn -0.536200 0.797200 -0.277500
vn -0.610500 0.750200 -0.254100
vn -0.457600 0.805800 -0.375800
vn -0.500700 0.801700 -0.326600
vn -0.508700 0.775300 -0.374300
vn -0.175100 0.900900 -0.397000
vn -0.434300 0.796200 -0.421300
vn -0.428100 0.845500 -0.319100
vn -0.294600 0.905800 -0.304600
vn -0.367100 0.725100 -0.582700
vn -0.412600 0.752700 -0.513000
vn -0.317500 0.773800 -0.548200
vn 0.413300 0.768100 -0.489100
vn 0.434500 0.733200 -0.523000
vn 0.437800 0.755100 -0.487900
vn 0.413900 0.739800 -0.530400
vn 0.410300 0.727400 -0.550000
vn 0.423000 0.724600 -0.544100
vn 0.378800 0.782700 -0.493900
vn 0.403700 0.758200 -0.512000
vn 0.395000 0.777400 -0.489500
vn 0.427600 0.786000 -0.446500
vn 0.595100 0.796400 0.107600
vn 0.581000 0.796900 0.165600
vn 0.596700 0.787700 0.153100
vn 0.481700 0.857600 0.180300
vn 0.374300 0.923600 -0.082200
vn 0.377600 0.925400 0.033500
vn 0.496700 0.867700 0.020500
vn 0.472000 0.788300 -0.394600
vn 0.506900 0.765200 -0.396800
vn 0.481300 0.799400 -0.359600
vn 0.497600 0.744500 -0.445100
vn 0.499000 0.743800 -0.444800
vn 0.507000 0.748300 -0.427900
vn 0.474200 0.775300 -0.417200
vn 0.491100 0.754800 -0.434800
vn 0.466100 0.782200 -0.413400
vn 0.573700 0.817100 -0.057200
vn 0.594400 0.803300 0.038200
vn 0.602400 0.796300 0.055100
vn 0.448200 0.876100 -0.177400
vn 0.435500 0.874400 -0.213800
vn -0.169600 0.731100 -0.660900
vn -0.190600 0.803200 -0.564400
vn -0.053100 0.820200 -0.569600
vn -0.486200 0.734700 -0.473000
vn -0.531600 0.738500 -0.414700
vn -0.485900 0.739100 -0.466500
vn -0.270800 0.810500 -0.519300
vn -0.224500 0.789100 -0.571800
vn 0.388800 0.746600 -0.539800
vn 0.412600 0.742000 -0.528300
vn 0.411400 0.746300 -0.523300
vn 0.250500 0.726400 -0.640000
vn 0.259300 0.785500 -0.561900
vn 0.331500 0.764700 -0.552600
vn 0.489700 0.781100 0.387500
vn 0.422100 0.822600 0.380900
vn 0.244800 0.936700 0.250500
vn 0.543300 0.717400 -0.436100
vn 0.548000 0.717900 -0.429200
vn 0.518500 0.733600 -0.439200
vn 0.323800 0.867900 -0.376700
vn 0.256100 0.931200 -0.259300
vn 0.416900 0.840700 -0.345600
vn 0.448300 0.707600 -0.546100
vn 0.458500 0.699700 -0.547900
vn 0.490500 0.695500 -0.525100
vn 0.329500 0.925000 -0.189000
vn 0.341100 0.920900 -0.188700
vn 0.248600 0.954000 -0.167500
vn 0.619900 0.768500 -0.158300
vn 0.595000 0.789000 -0.153400
vn 0.583900 0.789800 -0.187500
vn 0.543400 0.753500 -0.369900
vn 0.583200 0.749800 -0.312500
vn 0.565200 0.771200 -0.293000
vn 0.460000 0.800200 -0.384800
vn 0.396600 0.873100 -0.283700
vn 0.458000 0.822800 -0.336500
vn 0.455700 0.783400 -0.422500
vn 0.565500 0.797700 0.209500
vn 0.553500 0.795300 0.247100
vn 0.553000 0.805600 0.212500
vn -0.035200 0.745900 -0.665100
vn 0.037200 0.739400 -0.672200
vn 0.408000 0.889600 -0.205100
vn 0.440100 0.875900 -0.197800
vn 0.450200 0.880900 -0.145800
vn 0.245300 0.835400 -0.491900
vn 0.156100 0.903800 -0.398400
vn 0.230900 0.844300 -0.483600
vn 0.375400 0.790200 -0.484400
vn 0.391800 0.897000 -0.204600
vn 0.591000 0.779400 0.208100
vn 0.447100 0.806900 -0.385900
vn 0.548600 0.750200 -0.369100
vn 0.587500 0.793100 -0.160600
vn 0.247100 0.950400 -0.189000
vn 0.486700 0.688500 -0.537700
vn 0.483300 0.791400 -0.374200
vn 0.518100 0.732900 -0.441000
vn 0.409000 0.823500 0.393100
vn 0.324700 0.711300 -0.623300
vn 0.409400 0.739400 -0.534600
vn -0.396700 0.777000 -0.488700
vn -0.040300 0.748500 -0.661900
vn 0.440200 0.880200 -0.177300
vn 0.550300 0.833200 -0.054800
vn 0.502500 0.741700 -0.444300
vn 0.495800 0.864000 -0.087800
vn 0.486000 0.865800 0.119100
vn 0.601700 0.791500 0.107000
vn 0.391400 0.910600 -0.132500
vn 0.426800 0.734400 -0.527600
vn 0.438700 0.757100 -0.484100
vn -0.241300 0.764300 -0.598000
vn -0.335900 0.834300 -0.437200
vn -0.073600 0.913200 -0.400800
vn -0.509100 0.777800 -0.368500
vn -0.586400 0.763900 -0.269400
vn -0.496800 0.784700 -0.370800
vn -0.412700 0.814200 -0.408300
vn -0.283500 0.798000 -0.531800
vn 0.396200 0.713900 -0.577400
vn 0.374200 0.804000 -0.462200
vn 0.404300 0.752100 -0.520500
vn 0.174900 0.733500 -0.656800
vn 0.153100 0.921400 -0.357300
vn 0.282800 0.882200 -0.376500
vn 0.171500 0.711300 -0.681600
vn 0.286000 0.708400 -0.645200
vn 0.405300 0.913000 0.047500
vn 0.412200 0.901900 0.129200
vn 0.262200 0.959800 -0.100500
vn 0.342300 0.938500 -0.045800
vn 0.404500 0.830700 0.382600
vn 0.408000 0.755900 0.512000
vn 0.218000 0.914500 0.340800
vn 0.561500 0.706600 -0.430700
vn 0.511100 0.785600 -0.348800
vn 0.500700 0.751200 -0.430100
vn 0.270900 0.941600 -0.200200
vn 0.433900 0.879700 -0.194600
vn 0.416200 0.720200 -0.555100
vn 0.346700 0.820900 -0.453800
vn 0.512700 0.690200 -0.510600
vn 0.441800 0.874300 -0.201000
vn 0.445800 0.868000 -0.218800
vn 0.303200 0.932600 -0.195700
vn 0.543700 0.835000 -0.084400
vn 0.449100 0.892100 -0.049100
vn 0.525600 0.835000 -0.162800
vn 0.540700 0.731600 -0.415200
vn 0.583200 0.773000 -0.249800
vn 0.596900 0.764000 -0.244900
vn 0.428300 0.869400 -0.246300
vn 0.340200 0.916200 -0.211800
vn 0.365200 0.918200 -0.153600
vn 0.482700 0.736500 -0.473900
vn 0.538200 0.687600 -0.487500
vn 0.431200 0.867400 0.248500
vn 0.410600 0.863200 0.293800
vn 0.536100 0.789500 0.298600
vn -0.187900 0.754600 -0.628700
vn -0.000200 0.733000 -0.680200
vn 0.458400 0.854500 -0.244500
vn 0.477600 0.851900 -0.214800
vn 0.447900 0.878600 -0.165600
vn 0.288500 0.907300 -0.306000
vn 0.503700 0.839100 -0.205400
vn 0.510200 0.845000 -0.160600
vn 0.500500 0.856800 -0.123900
vn 0.419600 0.888200 -0.187000
vn 0.425200 0.895100 -0.133900
vn 0.488200 0.857300 -0.163300
vn 0.462000 0.857800 -0.225300
vn 0.464600 0.853000 -0.237900
vn -0.097300 0.744200 -0.660900
vn -0.097000 0.741600 -0.663800
vn -0.022100 0.725800 -0.687600
vn -0.217400 0.781100 -0.585400
vn -0.269300 0.770600 -0.577700
vn -0.188300 0.757100 -0.625500
vn -0.218900 0.790500 -0.572000
vn -0.148200 0.775200 -0.614000
vn 0.384700 0.729300 -0.565800
vn 0.321100 0.716000 -0.619800
vn 0.347800 0.701900 -0.621600
vn 0.371600 0.713600 -0.593900
vn 0.542200 0.785800 0.297400
vn 0.526500 0.773300 0.353200
vn 0.483600 0.798900 0.357600
vn 0.403500 0.853200 0.330500
vn 0.426900 0.862400 0.272000
vn 0.516900 0.716900 -0.467900
vn 0.537000 0.707700 -0.459100
vn 0.507200 0.737300 -0.446200
vn 0.540000 0.674300 -0.503700
vn 0.553400 0.686200 -0.472100
vn 0.555500 0.687700 -0.467500
vn 0.494000 0.704100 -0.510100
vn 0.519500 0.679200 -0.518500
vn 0.514100 0.703100 -0.491300
vn 0.260400 0.961400 -0.089000
vn 0.319900 0.945500 -0.060700
vn 0.384700 0.915200 -0.119600
vn 0.254700 0.960600 -0.111400
vn 0.319600 0.915100 -0.246000
vn 0.327300 0.920500 -0.213300
vn 0.528700 0.812200 -0.246800
vn 0.532300 0.820800 -0.207000
vn 0.437000 0.873400 -0.215100
vn 0.489200 0.801800 -0.343200
vn 0.513500 0.804200 -0.299300
vn 0.418500 0.861000 -0.289200
vn 0.618000 0.746800 -0.245900
vn 0.617200 0.766300 -0.178100
vn 0.600200 0.775600 -0.195400
vn 0.484700 0.848100 -0.213900
vn 0.462600 0.879200 -0.114400
vn 0.572600 0.806300 -0.148600
vn 0.500100 0.759400 -0.416100
vn 0.503100 0.797800 -0.332400
vn 0.563800 0.751400 -0.342900
vn 0.512600 0.852200 -0.105200
vn 0.455200 0.883200 -0.112800
vn 0.485800 0.856300 -0.175500
vn 0.428800 0.902400 -0.041700
vn 0.499000 0.865100 -0.051400
vn 0.377300 0.899800 -0.218900
vn 0.404800 0.885400 -0.228500
vn 0.344900 0.917300 -0.198900
vn 0.500600 0.841300 -0.203800
vn 0.481200 0.849000 -0.218100
vn 0.452100 0.859800 -0.237500
vn 0.526700 0.829200 -0.187000
vn 0.513900 0.836100 -0.191800
vn 0.446300 0.870200 -0.208600
vn 0.447400 0.741900 -0.499400
vn 0.406000 0.816000 -0.411600
vn 0.507800 0.727900 -0.460800
vn 0.334200 0.871200 -0.359500
vn 0.233500 0.944500 -0.231000
vn 0.363400 0.874900 -0.320200
vn 0.371400 0.758100 -0.536100
vn 0.380800 0.790200 -0.480200
vn 0.391200 0.752400 -0.529900
vn 0.351500 0.927400 -0.127800
vn 0.510300 0.763500 -0.395900
vn 0.462800 0.804600 -0.372100
vn 0.476900 0.771000 -0.422100
vn 0.463000 0.842300 -0.275900
vn 0.470800 0.857600 -0.207000
vn 0.438900 0.849600 -0.292500
vn 0.552300 0.724100 -0.413100
vn 0.525100 0.779600 -0.341300
vn 0.547400 0.742500 -0.386200
vn 0.380400 0.788500 0.483200
vn 0.297000 0.840700 0.452900
vn 0.086100 0.955200 0.283200
vn 0.377000 0.758700 0.531200
vn 0.412600 0.791600 0.450700
vn 0.219900 0.962400 -0.159600
vn 0.250800 0.955700 -0.154300
vn 0.230000 0.966300 -0.115500
vn 0.202400 0.965000 -0.166500
vn 0.393600 0.883000 0.255800
vn 0.324800 0.901700 0.285200
vn 0.494200 0.847500 0.193800
vn 0.453000 0.864100 0.219500
vn 0.236000 0.931900 0.275600
vn 0.155400 0.957000 0.245000
vn 0.398800 0.910900 -0.106400
vn 0.451600 0.889900 -0.064500
vn 0.379400 0.925200 -0.002800
vn 0.290100 0.944900 -0.151500
vn 0.341100 0.930000 -0.137100
vn 0.301600 0.950300 -0.076900
vn 0.533500 0.836800 0.123100
vn 0.524100 0.836500 0.160100
vn 0.386000 0.912000 0.138300
vn 0.499400 0.866300 -0.001200
vn 0.528200 0.846600 0.065900
vn 0.417300 0.904200 0.090500
vn 0.236400 0.707500 -0.666000
vn 0.248400 0.701300 -0.668200
vn 0.306600 0.698100 -0.647100
vn 0.089600 0.721600 -0.686500
vn 0.086100 0.715500 -0.693300
vn 0.174200 0.708800 -0.683600
vn 0.099000 0.738800 -0.666700
vn 0.220100 0.909400 -0.352800
vn 0.050100 0.926100 -0.373900
vn 0.077500 0.743400 -0.664400
vn 0.072900 0.823000 -0.563400
vn 0.159300 0.812700 -0.560500
vn 0.394300 0.772800 -0.497300
vn 0.336900 0.821900 -0.459300
vn 0.371400 0.773100 -0.514200
vn 0.335600 0.844400 -0.417600
vn 0.338400 0.903100 -0.264500
vn 0.380400 0.850800 -0.362400
vn 0.369900 0.709200 -0.600200
vn 0.376700 0.751200 -0.542000
vn 0.404700 0.741200 -0.535500
vn -0.387300 0.795400 -0.466200
vn -0.387900 0.798900 -0.459700
vn -0.339000 0.784000 -0.520100
vn -0.414100 0.837300 -0.357000
vn -0.459000 0.816900 -0.349200
vn -0.462900 0.792600 -0.396800
vn -0.359500 0.842100 -0.402100
vn -0.539600 0.779100 -0.319200
vn -0.577100 0.773900 -0.260800
vn -0.528200 0.793600 -0.301900
vn -0.566600 0.789500 -0.236000
vn -0.587400 0.776800 -0.227000
vn -0.500800 0.802700 -0.323700
vn -0.536100 0.796100 -0.280800
vn -0.551900 0.770600 -0.318700
vn -0.212100 0.877800 -0.429600
vn -0.426700 0.804000 -0.414100
vn -0.443700 0.831700 -0.333700
vn -0.327100 0.884300 -0.333200
vn -0.324800 0.772600 -0.545600
vn -0.383200 0.785600 -0.485700
vn -0.297000 0.793900 -0.530600
vn 0.437200 0.739400 -0.512000
vn 0.450500 0.712200 -0.538300
vn 0.465900 0.718600 -0.516400
vn 0.414300 0.739400 -0.530800
vn 0.399800 0.740200 -0.540700
vn 0.426000 0.720700 -0.546900
vn 0.403200 0.756600 -0.514800
vn 0.415500 0.744600 -0.522300
vn 0.416500 0.753200 -0.509100
vn 0.462500 0.743500 -0.483100
vn 0.593600 0.797800 0.105300
vn 0.590000 0.786700 0.181900
vn 0.603500 0.780200 0.164300
vn 0.454600 0.865000 0.212200
vn 0.405800 0.912600 -0.050500
vn 0.350400 0.934400 0.064700
vn 0.505500 0.862300 0.031400
vn 0.499500 0.754300 -0.426100
vn 0.529300 0.734900 -0.423900
vn 0.512000 0.762300 -0.396100
vn 0.498600 0.743200 -0.446200
vn 0.498300 0.744700 -0.444000
vn 0.518500 0.732300 -0.441400
vn 0.490800 0.754400 -0.435900
vn 0.498200 0.745500 -0.442800
vn 0.486100 0.757600 -0.435600
vn 0.547700 0.832200 -0.085900
vn 0.577400 0.816300 0.016200
vn 0.589300 0.807000 0.038800
vn 0.392300 0.913200 -0.110000
vn 0.389000 0.907600 -0.157700
vn -0.138400 0.757600 -0.637800
vn -0.186300 0.806700 -0.560800
vn -0.050400 0.821900 -0.567400
vn -0.443800 0.786800 -0.428900
vn -0.496400 0.782200 -0.376400
vn -0.450600 0.782000 -0.430700
vn -0.331400 0.823300 -0.460700
vn -0.284800 0.806300 -0.518400
vn 0.408300 0.725000 -0.554800
vn 0.415500 0.738800 -0.530600
vn 0.416200 0.740700 -0.527400
vn 0.255100 0.722700 -0.642400
vn 0.252300 0.790700 -0.557800
vn 0.325500 0.770000 -0.548700
vn 0.501600 0.754900 0.422600
vn 0.453900 0.754800 0.473500
vn 0.312600 0.870100 0.381100
vn 0.545500 0.714100 -0.438700
vn 0.537100 0.733900 -0.415800
vn 0.515100 0.738400 -0.435200
vn 0.423000 0.858000 -0.291200
vn 0.342400 0.920500 -0.188200
vn 0.499100 0.823300 -0.270300
vn 0.456700 0.695900 -0.554200
vn 0.457800 0.700800 -0.547100
vn 0.503100 0.675900 -0.538600
vn 0.340000 0.918900 -0.200200
vn 0.356000 0.911800 -0.204900
vn 0.268700 0.944600 -0.188400
vn 0.598200 0.791400 -0.126100
vn 0.561500 0.820700 -0.106200
vn 0.560600 0.813400 -0.155100
vn 0.562800 0.725900 -0.395400
vn 0.597000 0.730000 -0.332600
vn 0.579600 0.752300 -0.313100
vn 0.391700 0.865400 -0.312400
vn 0.316200 0.927600 -0.198900
vn 0.410400 0.866800 -0.283200
vn 0.488900 0.741700 -0.459300
vn 0.573600 0.787300 0.226200
vn 0.557500 0.789500 0.256500
vn 0.570400 0.783600 0.246000
vn -0.065600 0.760900 -0.645500
vn 0.020300 0.749100 -0.662200
vn 0.434300 0.869000 -0.236900
vn 0.467000 0.853100 -0.232500
vn 0.393000 0.898500 -0.195400
vn 0.340800 0.848500 -0.404900
vn 0.253700 0.914100 -0.316200
vn 0.324100 0.854500 -0.405900
usemtl None
s off
f 394/1/1 104/2/1 3/3/1
f 102/4/2 2/5/2 168/6/2
f 391/7/3 106/8/3 4/9/3
f 109/10/4 5/11/4 173/12/4
f 126/13/5 21/14/5 162/15/5
f 127/16/6 22/17/6 176/18/6
f 114/19/7 11/20/7 177/21/7
f 131/22/8 9/23/8 153/24/8
f 132/25/9 23/26/9 181/27/9
f 122/28/10 18/29/10 182/30/10
f 382/31/11 116/32/11 13/33/11
f 138/34/12 24/35/12 186/36/12
f 119/37/13 16/38/13 187/39/13
f 378/40/14 142/41/14 25/42/14
f 120/43/15 17/44/15 191/45/15
f 146/46/16 15/47/16 157/48/16
f 375/49/17 112/50/17 8/51/17
f 197/52/18 75/53/18 198/54/18
f 371/55/19 200/56/19 74/57/19
f 201/58/20 76/59/20 202/60/20
f 369/61/21 163/62/21 41/63/21
f 368/64/22 193/65/22 72/66/22
f 207/67/23 77/68/23 208/69/23
f 192/70/24 71/71/24 209/72/24
f 363/73/25 210/74/25 70/75/25
f 362/76/26 211/77/26 78/78/26
f 361/79/27 170/80/27 49/81/27
f 214/82/28 69/83/28 143/84/28
f 215/85/29 79/86/29 216/87/29
f 358/88/30 189/89/30 68/90/30
f 219/91/31 80/92/31 220/93/31
f 355/94/32 188/95/32 67/96/32
f 222/97/33 66/98/33 140/99/33
f 223/100/34 81/101/34 224/102/34
f 169/103/35 48/104/35 225/105/35
f 226/106/36 65/107/36 139/108/36
f 350/109/37 227/110/37 82/111/37
f 185/112/38 64/113/38 229/114/38
f 230/115/39 83/116/39 231/117/39
f 184/118/40 63/119/40 232/120/40
f 345/121/41 233/122/41 62/123/41
f 344/124/42 234/125/42 84/126/42
f 343/127/43 236/128/43 32/129/43
f 342/130/44 237/131/44 85/132/44
f 336/133/45 243/134/45 61/135/45
f 335/136/46 244/137/46 86/138/46
f 334/139/47 166/140/47 45/141/47
f 247/142/48 60/143/48 134/144/48
f 248/145/49 87/146/49 249/147/49
f 172/148/50 51/149/50 250/150/50
f 330/151/51 251/152/51 59/153/51
f 329/154/52 180/155/52 58/156/52
f 253/157/53 30/158/53 103/159/53
f 254/160/54 89/161/54 255/162/54
f 179/163/55 57/164/55 256/165/55
f 257/166/56 56/167/56 129/168/56
f 258/169/57 90/170/57 259/171/57
f 164/172/58 43/173/58 260/174/58
f 261/175/59 55/176/59 128/177/59
f 262/178/60 91/179/60 263/180/60
f 175/181/61 54/182/61 264/183/61
f 265/184/62 39/185/62 110/186/62
f 266/187/63 92/188/63 267/189/63
f 174/190/64 53/191/64 268/192/64
f 270/193/65 93/194/65 271/195/65
f 273/196/66 52/197/66 124/198/66
f 160/199/67 38/200/67 276/201/67
f 277/202/68 42/203/68 113/204/68
f 278/205/69 95/206/69 279/207/69
f 281/208/70 50/209/70 121/210/70
f 307/211/71 282/212/71 96/213/71
f 306/214/72 155/215/72 33/216/72
f 288/217/73 97/218/73 289/219/73
f 158/220/74 36/221/74 290/222/74
f 291/223/75 47/224/75 118/225/75
f 292/226/76 98/227/76 293/228/76
f 298/229/77 152/230/77 29/231/77
f 297/232/78 295/233/78 44/234/78
f 298/229/79 294/235/79 98/227/79
f 74/57/80 194/236/80 298/229/80
f 194/236/81 8/51/81 152/230/81
f 299/237/82 293/228/82 72/66/82
f 26/238/83 148/239/83 299/237/83
f 74/57/84 292/226/84 299/237/84
f 300/240/85 118/225/85 15/47/85
f 293/228/86 300/240/86 146/46/86
f 98/227/87 291/223/87 300/240/87
f 301/241/88 290/222/88 97/218/88
f 70/75/89 191/45/89 301/241/89
f 17/44/90 158/220/90 301/241/90
f 188/95/91 302/242/91 289/219/91
f 25/42/92 144/243/92 302/242/92
f 144/243/93 70/75/93 288/217/93
f 289/219/94 303/244/94 141/245/94
f 97/218/95 287/246/95 303/244/95
f 187/39/96 304/247/96 285/248/96
f 305/249/97 286/250/97 63/119/97
f 140/99/98 305/249/98 184/118/98
f 66/98/99 285/248/99 305/249/99
f 282/212/100 306/214/100 284/251/100
f 61/135/101 183/252/101 306/214/101
f 183/252/102 13/33/102 155/215/102
f 135/253/103 61/135/103 282/212/103
f 283/254/104 96/213/104 281/208/104
f 309/255/105 280/256/105 95/206/105
f 182/30/106 309/255/106 278/205/106
f 18/29/107 159/257/107 309/255/107
f 310/258/108 279/207/108 57/164/108
f 134/144/109 310/258/109 179/163/109
f 60/143/110 278/205/110 310/258/110
f 311/259/111 113/204/111 9/23/111
f 279/207/112 311/259/112 131/22/112
f 95/206/113 277/202/113 311/259/113
f 312/260/114 276/201/114 94/261/114
f 19/262/115 160/199/115 312/260/115
f 130/263/116 313/264/116 124/198/116
f 94/261/117 273/196/117 313/264/117
f 314/265/118 272/266/118 93/194/118
f 177/21/119 314/265/119 270/193/119
f 315/267/120 271/195/120 53/191/120
f 129/168/121 315/267/121 174/190/121
f 56/167/122 270/193/122 315/267/122
f 316/268/123 125/269/123 21/14/123
f 271/195/124 316/268/124 126/13/124
f 93/194/125 269/270/125 316/268/125
f 317/271/126 268/192/126 92/188/126
f 176/18/127 317/271/127 266/187/127
f 22/17/128 174/190/128 317/271/128
f 318/272/129 267/189/129 38/200/129
f 128/177/130 318/272/130 160/199/130
f 55/176/131 266/187/131 318/272/131
f 319/273/132 110/186/132 5/11/132
f 267/189/133 319/273/133 109/10/133
f 92/188/134 265/184/134 319/273/134
f 320/274/135 264/183/135 91/179/135
f 157/48/136 320/274/136 262/178/136
f 15/47/137 175/181/137 320/274/137
f 322/275/138 128/177/138 19/262/138
f 91/179/139 261/175/139 322/275/139
f 323/276/140 260/174/140 90/170/140
f 168/6/141 323/276/141 258/169/141
f 2/5/142 164/172/142 323/276/142
f 324/277/143 259/171/143 54/182/143
f 118/225/144 324/277/144 175/181/144
f 47/224/145 258/169/145 324/277/145
f 325/278/146 129/168/146 22/17/146
f 259/171/147 325/278/147 127/16/147
f 90/170/148 257/166/148 325/278/148
f 326/279/149 256/165/149 89/161/149
f 181/27/150 326/279/150 254/160/150
f 23/26/151 179/163/151 326/279/151
f 154/280/152 327/281/152 255/162/152
f 10/282/153 133/283/153 327/281/153
f 133/283/154 59/153/154 254/160/154
f 328/284/155 103/159/155 3/3/155
f 31/285/156 255/162/156 328/284/156
f 89/161/157 253/157/157 328/284/157
f 161/286/158 20/287/158 180/155/158
f 331/288/159 250/150/159 87/146/159
f 173/12/160 331/288/160 248/145/160
f 5/11/161 172/148/161 331/288/161
f 332/289/162 249/147/162 58/156/162
f 20/287/163 124/198/163 332/289/163
f 52/197/164 248/145/164 332/289/164
f 333/290/165 134/144/165 23/26/165
f 249/147/166 333/290/166 132/25/166
f 87/146/167 247/142/167 333/290/167
f 244/137/168 334/139/168 246/291/168
f 27/292/169 100/293/169 334/294/169
f 1/295/170 166/296/170 334/294/170
f 150/297/171 27/292/171 244/298/171
f 245/299/172 86/138/172 243/134/172
f 164/172/173 337/300/173 242/301/173
f 2/5/174 105/302/174 337/300/174
f 105/302/175 32/129/175 241/303/175
f 43/173/176 242/301/176 338/304/176
f 155/215/177 339/305/177 240/306/177
f 13/33/178 136/307/178 339/305/178
f 106/8/179 340/308/179 108/309/179
f 33/216/180 240/306/180 340/308/180
f 116/32/181 341/310/181 136/307/181
f 45/141/182 239/311/182 341/310/182
f 152/230/183 342/130/183 238/312/183
f 8/51/184 137/313/184 342/130/184
f 137/313/185 62/123/185 237/131/185
f 102/4/186 343/127/186 105/302/186
f 29/231/187 238/312/187 343/127/187
f 238/312/188 85/132/188 236/128/188
f 163/62/189 344/124/189 235/314/189
f 4/9/190 108/309/190 344/124/190
f 108/309/191 37/315/191 234/125/191
f 112/50/192 345/121/192 137/313/192
f 41/63/193 235/314/193 345/121/193
f 235/314/194 84/126/194 233/122/194
f 346/316/195 232/120/195 83/116/195
f 186/36/196 346/316/196 230/115/196
f 24/35/197 184/118/197 346/316/197
f 347/317/198 231/117/198 36/221/198
f 139/108/199 347/317/199 158/220/199
f 65/107/200 230/115/200 347/317/200
f 231/117/201 348/318/201 107/319/201
f 349/320/202 229/114/202 82/111/202
f 170/80/203 350/109/203 228/321/203
f 351/322/204 139/108/204 17/44/204
f 49/81/205 228/321/205 351/322/205
f 82/111/206 226/106/206 351/322/206
f 352/323/207 225/105/207 81/101/207
f 165/324/208 352/323/208 223/100/208
f 3/3/209 169/103/209 352/323/209
f 353/325/210 224/102/210 64/113/210
f 12/326/211 115/327/211 353/325/211
f 115/327/212 44/234/212 223/100/212
f 354/328/213 140/99/213 24/35/213
f 224/102/214 354/328/214 138/34/214
f 81/101/215 222/97/215 354/328/215
f 355/94/216 221/329/216 80/92/216
f 69/83/217 190/330/217 355/94/217
f 190/330/218 25/42/218 188/95/218
f 356/331/219 220/93/219 34/332/219
f 143/84/220 356/331/220 156/333/220
f 69/83/221 219/91/221 356/331/221
f 80/92/222 218/334/222 357/335/222
f 215/85/223 358/88/223 217/336/223
f 28/337/224 151/338/224 358/88/224
f 151/338/225 7/339/225 189/89/225
f 359/340/226 216/87/226 46/341/226
f 101/342/227 28/337/227 215/85/227
f 360/343/228 143/84/228 14/344/228
f 216/87/229 360/343/229 117/345/229
f 79/86/230 214/82/230 360/343/230
f 211/77/231 361/79/231 213/346/231
f 189/89/232 362/76/232 212/347/232
f 7/339/233 111/348/233 362/76/233
f 111/348/234 40/349/234 211/77/234
f 142/41/235 363/73/235 144/243/235
f 68/90/236 212/347/236 363/73/236
f 212/347/237 78/78/237 210/74/237
f 364/350/238 209/72/238 77/68/238
f 153/24/239 364/350/239 207/67/239
f 9/23/240 192/70/240 364/350/240
f 365/351/241 208/69/241 48/104/241
f 103/159/242 365/351/242 169/103/242
f 30/158/243 207/67/243 365/351/243
f 366/352/244 145/353/244 16/38/244
f 208/69/245 366/352/245 119/37/245
f 77/68/246 206/354/246 366/352/246
f 113/204/247 367/355/247 192/70/247
f 201/58/248 369/61/248 203/356/248
f 50/209/249 171/357/249 369/61/249
f 171/357/250 4/9/250 163/62/250
f 50/209/251 201/58/251 370/358/251
f 147/359/252 371/55/252 148/239/252
f 202/60/253 371/55/253 147/359/253
f 202/60/254 76/59/254 200/56/254
f 372/360/255 199/361/255 75/53/255
f 162/15/256 372/360/256 197/52/256
f 21/14/257 195/362/257 372/360/257
f 373/363/258 198/54/258 51/149/258
f 110/186/259 373/363/259 172/148/259
f 39/185/260 197/52/260 373/363/260
f 374/364/261 149/365/261 18/29/261
f 198/54/262 374/364/262 122/28/262
f 75/53/263 196/366/263 374/364/263
f 200/56/264 375/49/264 194/236/264
f 76/59/265 203/356/265 375/49/265
f 203/356/266 41/63/266 112/50/266
f 376/367/267 157/48/267 35/368/267
f 72/66/268 146/46/268 376/367/268
f 210/74/269 377/369/269 191/45/269
f 78/78/270 213/346/270 377/369/270
f 213/346/271 49/81/271 120/43/271
f 214/82/272 378/40/272 190/330/272
f 79/86/273 217/336/273 378/40/273
f 217/336/274 68/90/274 142/41/274
f 221/329/275 379/370/275 218/334/275
f 67/96/276 141/245/276 379/370/276
f 380/371/277 187/39/277 66/98/277
f 225/105/278 380/371/278 222/97/278
f 48/104/279 119/37/279 380/371/279
f 381/372/280 186/36/280 65/107/280
f 229/114/281 381/372/281 226/106/281
f 64/113/282 138/34/282 381/372/282
f 243/134/283 382/31/283 183/252/283
f 86/138/284 246/291/284 382/31/284
f 246/291/285 45/141/285 116/32/285
f 383/373/286 182/30/286 60/143/286
f 250/150/287 383/373/287 247/142/287
f 51/149/288 122/28/288 383/373/288
f 251/152/289 384/374/289 181/27/289
f 88/375/290 252/376/290 384/374/290
f 252/376/291 58/156/291 132/25/291
f 385/377/292 153/24/292 30/158/292
f 256/165/293 385/377/293 253/157/293
f 57/164/294 131/22/294 385/377/294
f 386/378/295 177/21/295 56/167/295
f 260/174/296 386/378/296 257/166/296
f 43/173/297 114/19/297 386/378/297
f 387/379/298 176/18/298 55/176/298
f 264/183/299 387/379/299 261/175/299
f 54/182/300 127/16/300 387/379/300
f 388/380/301 162/15/301 39/185/301
f 268/192/302 388/380/302 265/184/302
f 53/191/303 126/13/303 388/380/303
f 389/381/304 173/12/304 52/197/304
f 276/201/305 389/381/305 273/196/305
f 38/200/306 109/10/306 389/381/306
f 280/256/307 390/382/307 277/202/307
f 281/208/308 391/7/308 171/357/308
f 96/213/309 284/251/309 391/7/309
f 284/251/310 33/216/310 106/8/310
f 290/222/311 392/383/311 287/246/311
f 36/221/312 107/319/312 392/383/312
f 393/384/313 168/6/313 47/224/313
f 294/235/314 393/384/314 291/223/314
f 294/235/315 29/231/315 102/4/315
f 295/233/316 394/1/316 165/324/316
f 99/385/317 296/386/317 394/1/317
f 296/386/318 31/285/318 104/2/318
f 165/324/319 394/1/319 3/3/319
f 393/384/320 102/4/320 168/6/320
f 171/357/321 391/7/321 4/9/321
f 389/381/322 109/10/322 173/12/322
f 388/380/323 126/13/323 162/15/323
f 387/379/324 127/16/324 176/18/324
f 386/378/325 114/19/325 177/21/325
f 385/377/326 131/22/326 153/24/326
f 384/374/327 132/25/327 181/27/327
f 383/373/328 122/28/328 182/30/328
f 183/252/329 382/31/329 13/33/329
f 381/372/330 138/34/330 186/36/330
f 380/371/331 119/37/331 187/39/331
f 190/330/332 378/40/332 25/42/332
f 377/369/333 120/43/333 191/45/333
f 376/367/334 146/46/334 157/48/334
f 194/236/335 375/49/335 8/51/335
f 373/363/336 197/52/336 198/54/336
f 148/239/337 371/55/337 74/57/337
f 370/358/338 201/58/338 202/60/338
f 203/356/339 369/61/339 41/63/339
f 205/387/340 368/64/340 72/66/340
f 365/351/341 207/67/341 208/69/341
f 364/350/342 192/70/342 209/72/342
f 144/243/343 363/73/343 70/75/343
f 212/347/344 362/76/344 78/78/344
f 213/346/345 361/79/345 49/81/345
f 360/343/346 214/82/346 143/84/346
f 359/340/347 215/85/347 216/87/347
f 217/336/348 358/88/348 68/90/348
f 356/331/349 219/91/349 220/93/349
f 221/329/350 355/94/350 67/96/350
f 354/328/351 222/97/351 140/99/351
f 353/325/352 223/100/352 224/102/352
f 352/323/353 169/103/353 225/105/353
f 351/322/354 226/106/354 139/108/354
f 228/321/355 350/109/355 82/111/355
f 349/320/356 185/112/356 229/114/356
f 347/317/357 230/115/357 231/117/357
f 346/316/358 184/118/358 232/120/358
f 137/313/359 345/121/359 62/123/359
f 235/314/360 344/124/360 84/126/360
f 105/302/361 343/127/361 32/129/361
f 238/312/362 342/130/362 85/132/362
f 135/253/363 336/133/363 61/135/363
f 245/299/364 335/136/364 86/138/364
f 246/291/365 334/139/365 45/141/365
f 333/290/366 247/142/366 134/144/366
f 332/289/367 248/145/367 249/147/367
f 331/288/368 172/148/368 250/150/368
f 133/283/369 330/151/369 59/153/369
f 252/376/370 329/154/370 58/156/370
f 328/284/371 253/157/371 103/159/371
f 327/281/372 254/160/372 255/162/372
f 326/279/373 179/163/373 256/165/373
f 325/278/374 257/166/374 129/168/374
f 324/277/375 258/169/375 259/171/375
f 323/276/376 164/172/376 260/174/376
f 322/275/377 261/175/377 128/177/377
f 321/388/378 262/178/378 263/180/378
f 320/274/379 175/181/379 264/183/379
f 319/273/380 265/184/380 110/186/380
f 318/272/381 266/187/381 267/189/381
f 317/271/382 174/190/382 268/192/382
f 315/267/383 270/193/383 271/195/383
f 313/264/384 273/196/384 124/198/384
f 312/260/385 160/199/385 276/201/385
f 311/259/386 277/202/386 113/204/386
f 310/258/387 278/205/387 279/207/387
f 308/389/388 281/208/388 121/210/388
f 283/254/389 307/211/389 96/213/389
f 284/251/390 306/214/390 33/216/390
f 302/242/391 288/217/391 289/219/391
f 301/241/392 158/220/392 290/222/392
f 300/240/393 291/223/393 118/225/393
f 299/237/394 292/226/394 293/228/394
f 294/235/395 298/229/395 29/231/395
f 115/327/396 297/232/396 44/234/396
f 292/226/397 298/229/397 98/227/397
f 292/226/398 74/57/398 298/229/398
f 298/229/399 194/236/399 152/230/399
f 193/65/400 299/237/400 72/66/400
f 193/65/401 26/238/401 299/237/401
f 148/239/402 74/57/402 299/237/402
f 146/46/403 300/240/403 15/47/403
f 72/66/82 293/228/82 146/46/82
f 293/228/404 98/227/404 300/240/404
f 288/217/405 301/241/405 97/218/405
f 288/217/406 70/75/406 301/241/406
f 191/45/407 17/44/407 301/241/407
f 67/96/408 188/95/408 289/219/408
f 188/95/409 25/42/409 302/242/409
f 302/242/410 144/243/410 288/217/410
f 67/96/411 289/219/411 141/245/411
f 289/219/412 97/218/412 303/244/412
f 66/98/413 187/39/413 285/248/413
f 184/118/414 305/249/414 63/119/414
f 24/35/415 140/99/415 184/118/415
f 140/99/416 66/98/416 305/249/416
f 96/213/417 282/212/417 284/251/417
f 282/212/418 61/135/418 306/214/418
f 306/214/419 183/252/419 155/215/419
f 307/211/420 135/253/420 282/212/420
f 308/389/421 283/254/421 281/208/421
f 278/205/422 309/255/422 95/206/422
f 60/143/423 182/30/423 278/205/423
f 182/30/424 18/29/424 309/255/424
f 179/163/425 310/258/425 57/164/425
f 23/26/426 134/144/426 179/163/426
f 134/144/427 60/143/427 310/258/427
f 131/22/428 311/259/428 9/23/428
f 57/164/429 279/207/429 131/22/429
f 279/207/430 95/206/430 311/259/430
f 274/390/431 312/260/431 94/261/431
f 178/391/432 19/262/432 312/260/432
f 20/287/433 130/263/433 124/198/433
f 275/392/434 94/261/434 313/264/434
f 270/193/435 314/265/435 93/194/435
f 56/167/436 177/21/436 270/193/436
f 174/190/437 315/267/437 53/191/437
f 22/17/438 129/168/438 174/190/438
f 129/168/439 56/167/439 315/267/439
f 126/13/440 316/268/440 21/14/440
f 53/191/441 271/195/441 126/13/441
f 271/195/442 93/194/442 316/268/442
f 266/187/443 317/271/443 92/188/443
f 55/176/444 176/18/444 266/187/444
f 176/18/445 22/17/445 317/271/445
f 160/199/446 318/272/446 38/200/446
f 19/262/447 128/177/447 160/199/447
f 128/177/448 55/176/448 318/272/448
f 109/10/449 319/273/449 5/11/449
f 38/200/450 267/189/450 109/10/450
f 267/189/451 92/188/451 319/273/451
f 262/178/452 320/274/452 91/179/452
f 35/368/453 157/48/453 262/178/453
f 157/48/454 15/47/454 320/274/454
f 123/393/455 322/275/455 19/262/455
f 263/180/456 91/179/456 322/275/456
f 258/169/457 323/276/457 90/170/457
f 47/224/458 168/6/458 258/169/458
f 168/6/459 2/5/459 323/276/459
f 175/181/460 324/277/460 54/182/460
f 15/47/461 118/225/461 175/181/461
f 118/225/462 47/224/462 324/277/462
f 127/16/463 325/278/463 22/17/463
f 54/182/464 259/171/464 127/16/464
f 259/171/465 90/170/465 325/278/465
f 254/160/466 326/279/466 89/161/466
f 59/153/467 181/27/467 254/160/467
f 181/27/468 23/26/468 326/279/468
f 31/285/469 154/280/469 255/162/469
f 154/280/470 10/282/470 327/281/470
f 327/281/471 133/283/471 254/160/471
f 104/2/472 328/284/472 3/3/472
f 104/2/473 31/285/473 328/284/473
f 255/162/474 89/161/474 328/284/474
f 329/154/475 161/286/475 180/155/475
f 248/145/476 331/288/476 87/146/476
f 52/197/477 173/12/477 248/145/477
f 173/12/478 5/11/478 331/288/478
f 180/155/479 332/289/479 58/156/479
f 180/155/480 20/287/480 332/289/480
f 124/198/481 52/197/481 332/289/481
f 132/25/482 333/290/482 23/26/482
f 58/156/483 249/147/483 132/25/483
f 249/147/484 87/146/484 333/290/484
f 86/138/485 244/137/485 246/291/485
f 244/298/486 27/292/486 334/294/486
f 100/293/487 1/295/487 334/294/487
f 335/394/488 150/297/488 244/298/488
f 336/133/489 245/299/489 243/134/489
f 43/173/490 164/172/490 242/301/490
f 164/172/491 2/5/491 337/300/491
f 337/300/492 105/302/492 241/303/492
f 114/19/493 43/173/493 338/304/493
f 33/216/494 155/215/494 240/306/494
f 155/215/495 13/33/495 339/305/495
f 4/9/496 106/8/496 108/309/496
f 106/8/497 33/216/497 340/308/497
f 13/33/498 116/32/498 136/307/498
f 116/32/499 45/141/499 341/310/499
f 29/231/500 152/230/500 238/312/500
f 152/230/501 8/51/501 342/130/501
f 342/130/502 137/313/502 237/131/502
f 2/5/503 102/4/503 105/302/503
f 102/4/504 29/231/504 343/127/504
f 343/127/505 238/312/505 236/128/505
f 41/63/506 163/62/506 235/314/506
f 163/62/507 4/9/507 344/124/507
f 344/124/508 108/309/508 234/125/508
f 8/51/509 112/50/509 137/313/509
f 112/50/510 41/63/510 345/121/510
f 345/121/511 235/314/511 233/122/511
f 230/115/512 346/316/512 83/116/512
f 65/107/513 186/36/513 230/115/513
f 186/36/514 24/35/514 346/316/514
f 158/220/515 347/317/515 36/221/515
f 17/44/516 139/108/516 158/220/516
f 139/108/517 65/107/517 347/317/517
f 36/221/518 231/117/518 107/319/518
f 227/110/519 349/320/519 82/111/519
f 49/81/520 170/80/520 228/321/520
f 120/43/521 351/322/521 17/44/521
f 120/43/522 49/81/522 351/322/522
f 228/321/523 82/111/523 351/322/523
f 223/100/524 352/323/524 81/101/524
f 44/234/525 165/324/525 223/100/525
f 165/324/526 3/3/526 352/323/526
f 185/112/527 353/325/527 64/113/527
f 185/112/528 12/326/528 353/325/528
f 353/325/529 115/327/529 223/100/529
f 138/34/530 354/328/530 24/35/530
f 64/113/531 224/102/531 138/34/531
f 224/102/532 81/101/532 354/328/532
f 219/91/533 355/94/533 80/92/533
f 219/91/534 69/83/534 355/94/534
f 355/94/535 190/330/535 188/95/535
f 156/333/536 356/331/536 34/332/536
f 14/344/537 143/84/537 156/333/537
f 143/84/538 69/83/538 356/331/538
f 220/93/539 80/92/539 357/335/539
f 79/86/540 215/85/540 217/336/540
f 215/85/541 28/337/541 358/88/541
f 358/88/542 151/338/542 189/89/542
f 167/395/543 359/340/543 46/341/543
f 359/340/544 101/342/544 215/85/544
f 117/345/545 360/343/545 14/344/545
f 46/341/546 216/87/546 117/345/546
f 216/87/547 79/86/547 360/343/547
f 78/78/548 211/77/548 213/346/548
f 68/90/549 189/89/549 212/347/549
f 189/89/550 7/339/550 362/76/550
f 362/76/551 111/348/551 211/77/551
f 25/42/552 142/41/552 144/243/552
f 142/41/553 68/90/553 363/73/553
f 363/73/554 212/347/554 210/74/554
f 207/67/555 364/350/555 77/68/555
f 30/158/556 153/24/556 207/67/556
f 153/24/557 9/23/557 364/350/557
f 169/103/558 365/351/558 48/104/558
f 3/3/559 103/159/559 169/103/559
f 103/159/560 30/158/560 365/351/560
f 119/37/561 366/352/561 16/38/561
f 48/104/562 208/69/562 119/37/562
f 208/69/563 77/68/563 366/352/563
f 9/23/564 113/204/564 192/70/564
f 76/59/565 201/58/565 203/356/565
f 201/58/566 50/209/566 369/61/566
f 369/61/567 171/357/567 163/62/567
f 121/210/568 50/209/568 370/358/568
f 26/238/569 147/359/569 148/239/569
f 73/396/570 202/60/570 147/359/570
f 371/55/571 202/60/571 200/56/571
f 197/52/572 372/360/572 75/53/572
f 39/185/573 162/15/573 197/52/573
f 162/15/574 21/14/574 372/360/574
f 172/148/575 373/363/575 51/149/575
f 5/11/576 110/186/576 172/148/576
f 110/186/577 39/185/577 373/363/577
f 122/28/578 374/364/578 18/29/578
f 51/149/579 198/54/579 122/28/579
f 198/54/580 75/53/580 374/364/580
f 74/57/581 200/56/581 194/236/581
f 200/56/582 76/59/582 375/49/582
f 375/49/583 203/356/583 112/50/583
f 204/397/584 376/367/584 35/368/584
f 205/387/585 72/66/585 376/367/585
f 70/75/586 210/74/586 191/45/586
f 210/74/587 78/78/587 377/369/587
f 377/369/588 213/346/588 120/43/588
f 69/83/589 214/82/589 190/330/589
f 214/82/590 79/86/590 378/40/590
f 378/40/591 217/336/591 142/41/591
f 80/92/592 221/329/592 218/334/592
f 221/329/593 67/96/593 379/370/593
f 222/97/594 380/371/594 66/98/594
f 81/101/595 225/105/595 222/97/595
f 225/105/596 48/104/596 380/371/596
f 226/106/597 381/372/597 65/107/597
f 82/111/598 229/114/598 226/106/598
f 229/114/599 64/113/599 381/372/599
f 61/135/600 243/134/600 183/252/600
f 243/134/601 86/138/601 382/31/601
f 382/31/602 246/291/602 116/32/602
f 247/142/603 383/373/603 60/143/603
f 87/146/604 250/150/604 247/142/604
f 250/150/605 51/149/605 383/373/605
f 59/153/606 251/152/606 181/27/606
f 251/152/607 88/375/607 384/374/607
f 384/374/608 252/376/608 132/25/608
f 253/157/609 385/377/609 30/158/609
f 89/161/610 256/165/610 253/157/610
f 256/165/611 57/164/611 385/377/611
f 257/166/612 386/378/612 56/167/612
f 90/170/613 260/174/613 257/166/613
f 260/174/614 43/173/614 386/378/614
f 261/175/615 387/379/615 55/176/615
f 91/179/616 264/183/616 261/175/616
f 264/183/617 54/182/617 387/379/617
f 265/184/618 388/380/618 39/185/618
f 92/188/619 268/192/619 265/184/619
f 268/192/620 53/191/620 388/380/620
f 273/196/621 389/381/621 52/197/621
f 94/261/622 276/201/622 273/196/622
f 276/201/623 38/200/623 389/381/623
f 95/206/624 280/256/624 277/202/624
f 50/209/625 281/208/625 171/357/625
f 281/208/626 96/213/626 391/7/626
f 391/7/627 284/251/627 106/8/627
f 97/218/628 290/222/628 287/246/628
f 290/222/629 36/221/629 392/383/629
f 291/223/630 393/384/630 47/224/630
f 98/227/631 294/235/631 291/223/631
f 393/384/632 294/235/632 102/4/632
f 44/234/633 295/233/633 165/324/633
f 295/233/634 99/385/634 394/1/634
f 394/1/635 296/386/635 104/2/635
l 6 150
